PhotoDiode_Data/SILVERRWPQ/M8/tek0012ALL.csv

Model,MSO3014
Firmware Version,2.38

Waveform Type,ANALOG,
Point Format,Y,
Horizontal Units,s,
Horizontal Scale,4e-06,
Horizontal Delay,-3.38813e-21,
Sample Interval,4e-10,
Record Length,100000,
Gating,0.0% to 100.0%,
Probe Attenuation,1,
Vertical Units,V,
Vertical Offset,0,
Vertical Scale,0.005,
Vertical Position,2,
,,
,,
,,
Label,,
TIME,CH1,CH2
-2.00000e-05,-0.0038,-0.0644
-1.99996e-05,-0.0038,-0.0628
-1.99992e-05,-0.004,-0.0628
-1.99988e-05,-0.0042,-0.0644
-1.99984e-05,-0.0036,-0.0652
-1.99980e-05,-0.0038,-0.0644
-1.99976e-05,-0.0042,-0.0636
-1.99972e-05,-0.0038,-0.0644
-1.99968e-05,-0.004,-0.0644
-1.99964e-05,-0.004,-0.0652
-1.99960e-05,-0.0038,-0.0644
-1.99956e-05,-0.0038,-0.0652
-1.99952e-05,-0.004,-0.0652
-1.99948e-05,-0.004,-0.0652
-1.99944e-05,-0.0036,-0.0652
-1.99940e-05,-0.0034,-0.0644
-1.99936e-05,-0.0038,-0.0644
-1.99932e-05,-0.0038,-0.0628
-1.99928e-05,-0.0036,-0.0636
-1.99924e-05,-0.0038,-0.0636
-1.99920e-05,-0.0034,-0.0636
-1.99916e-05,-0.0034,-0.0636
-1.99912e-05,-0.0036,-0.0644
-1.99908e-05,-0.004,-0.0636
-1.99904e-05,-0.0034,-0.0644
-1.99900e-05,-0.0034,-0.0636
-1.99896e-05,-0.0036,-0.0636
-1.99892e-05,-0.0036,-0.0652
-1.99888e-05,-0.0038,-0.0644
-1.99884e-05,-0.0038,-0.0636
-1.99880e-05,-0.004,-0.0636
-1.99876e-05,-0.0038,-0.0644
-1.99872e-05,-0.0032,-0.0652
-1.99868e-05,-0.0034,-0.0652
-1.99864e-05,-0.0038,-0.0652
-1.99860e-05,-0.0038,-0.0644
-1.99856e-05,-0.0038,-0.066
-1.99852e-05,-0.0038,-0.0668
-1.99848e-05,-0.0036,-0.0652
-1.99844e-05,-0.0038,-0.0652
-1.99840e-05,-0.0038,-0.0644
-1.99836e-05,-0.0036,-0.0652
-1.99832e-05,-0.0036,-0.0652
-1.99828e-05,-0.0038,-0.0652
-1.99824e-05,-0.0042,-0.0644
-1.99820e-05,-0.004,-0.0644
-1.99816e-05,-0.004,-0.0652
-1.99812e-05,-0.0034,-0.0644
-1.99808e-05,-0.0034,-0.0644
-1.99804e-05,-0.0032,-0.0644
-1.99800e-05,-0.0036,-0.0644
-1.99796e-05,-0.0038,-0.0644
-1.99792e-05,-0.0036,-0.0644
-1.99788e-05,-0.0038,-0.0644
-1.99784e-05,-0.0034,-0.0644
-1.99780e-05,-0.0034,-0.0652
-1.99776e-05,-0.004,-0.0636
-1.99772e-05,-0.0038,-0.0636
-1.99768e-05,-0.004,-0.066
-1.99764e-05,-0.004,-0.0636
-1.99760e-05,-0.0034,-0.0636
-1.99756e-05,-0.0038,-0.0652
-1.99752e-05,-0.0038,-0.0644
-1.99748e-05,-0.0038,-0.0644
-1.99744e-05,-0.0036,-0.0652
-1.99740e-05,-0.0036,-0.0644
-1.99736e-05,-0.0036,-0.0628
-1.99732e-05,-0.0032,-0.0636
-1.99728e-05,-0.0036,-0.0636
-1.99724e-05,-0.0034,-0.0644
-1.99720e-05,-0.0038,-0.066
-1.99716e-05,-0.0036,-0.0668
-1.99712e-05,-0.0034,-0.0652
-1.99708e-05,-0.0034,-0.0644
-1.99704e-05,-0.0036,-0.0644
-1.99700e-05,-0.0038,-0.0644
-1.99696e-05,-0.0038,-0.0644
-1.99692e-05,-0.0034,-0.0652
-1.99688e-05,-0.0036,-0.066
-1.99684e-05,-0.0036,-0.0636
-1.99680e-05,-0.0036,-0.0636
-1.99676e-05,-0.004,-0.0644
-1.99672e-05,-0.0038,-0.0644
-1.99668e-05,-0.0036,-0.0652
-1.99664e-05,-0.0038,-0.0652
-1.99660e-05,-0.0038,-0.0652
-1.99656e-05,-0.0038,-0.0652
-1.99652e-05,-0.0038,-0.0652
-1.99648e-05,-0.0036,-0.0644
-1.99644e-05,-0.0036,-0.0628
-1.99640e-05,-0.0036,-0.0652
-1.99636e-05,-0.0036,-0.0652
-1.99632e-05,-0.0036,-0.0644
-1.99628e-05,-0.0038,-0.0636
-1.99624e-05,-0.0038,-0.0644
-1.99620e-05,-0.0038,-0.0644
-1.99616e-05,-0.004,-0.066
-1.99612e-05,-0.0036,-0.0652
-1.99608e-05,-0.004,-0.0652
-1.99604e-05,-0.0036,-0.0644
-1.99600e-05,-0.0034,-0.0652
-1.99596e-05,-0.0038,-0.0644
-1.99592e-05,-0.0038,-0.0636
-1.99588e-05,-0.0038,-0.0636
-1.99584e-05,-0.0038,-0.0644
-1.99580e-05,-0.0038,-0.0636
-1.99576e-05,-0.0038,-0.0644
-1.99572e-05,-0.0038,-0.0628
-1.99568e-05,-0.0038,-0.0644
-1.99564e-05,-0.0036,-0.0652
-1.99560e-05,-0.0036,-0.0644
-1.99556e-05,-0.0036,-0.0636
-1.99552e-05,-0.0036,-0.0652
-1.99548e-05,-0.0034,-0.0644
-1.99544e-05,-0.0036,-0.0644
-1.99540e-05,-0.0036,-0.0652
-1.99536e-05,-0.0036,-0.0652
-1.99532e-05,-0.0036,-0.0652
-1.99528e-05,-0.0036,-0.0644
-1.99524e-05,-0.0034,-0.0644
-1.99520e-05,-0.0036,-0.0644
-1.99516e-05,-0.0032,-0.0644
-1.99512e-05,-0.0038,-0.0636
-1.99508e-05,-0.004,-0.0644
-1.99504e-05,-0.0036,-0.0636
-1.99500e-05,-0.0038,-0.0636
-1.99496e-05,-0.0038,-0.0644
-1.99492e-05,-0.0038,-0.0644
-1.99488e-05,-0.0036,-0.0652
-1.99484e-05,-0.0034,-0.0636
-1.99480e-05,-0.0038,-0.0644
-1.99476e-05,-0.0038,-0.0652
-1.99472e-05,-0.0038,-0.0652
-1.99468e-05,-0.0034,-0.0652
-1.99464e-05,-0.0038,-0.0652
-1.99460e-05,-0.0036,-0.0652
-1.99456e-05,-0.0038,-0.0652
-1.99452e-05,-0.0038,-0.0652
-1.99448e-05,-0.0038,-0.0652
-1.99444e-05,-0.0038,-0.0644
-1.99440e-05,-0.004,-0.0644
-1.99436e-05,-0.004,-0.0644
-1.99432e-05,-0.004,-0.0644
-1.99428e-05,-0.0038,-0.0644
-1.99424e-05,-0.0036,-0.0652
-1.99420e-05,-0.0042,-0.0652
-1.99416e-05,-0.0042,-0.0644
-1.99412e-05,-0.0038,-0.0652
-1.99408e-05,-0.0038,-0.0644
-1.99404e-05,-0.004,-0.0652
-1.99400e-05,-0.0038,-0.0652
-1.99396e-05,-0.0038,-0.0652
-1.99392e-05,-0.0036,-0.0644
-1.99388e-05,-0.0038,-0.0644
-1.99384e-05,-0.004,-0.0652
-1.99380e-05,-0.0038,-0.0668
-1.99376e-05,-0.0038,-0.0644
-1.99372e-05,-0.0038,-0.0652
-1.99368e-05,-0.0038,-0.0652
-1.99364e-05,-0.0034,-0.066
-1.99360e-05,-0.0038,-0.0636
-1.99356e-05,-0.0032,-0.0644
-1.99352e-05,-0.0034,-0.0652
-1.99348e-05,-0.0036,-0.0636
-1.99344e-05,-0.004,-0.0644
-1.99340e-05,-0.004,-0.0644
-1.99336e-05,-0.0038,-0.0652
-1.99332e-05,-0.0036,-0.0652
-1.99328e-05,-0.0036,-0.0652
-1.99324e-05,-0.0036,-0.0644
-1.99320e-05,-0.0036,-0.0644
-1.99316e-05,-0.004,-0.0644
-1.99312e-05,-0.004,-0.0636
-1.99308e-05,-0.004,-0.0644
-1.99304e-05,-0.0038,-0.0644
-1.99300e-05,-0.0038,-0.0644
-1.99296e-05,-0.0036,-0.0644
-1.99292e-05,-0.0038,-0.0644
-1.99288e-05,-0.0036,-0.0636
-1.99284e-05,-0.004,-0.0644
-1.99280e-05,-0.004,-0.0652
-1.99276e-05,-0.0042,-0.0652
-1.99272e-05,-0.0038,-0.0636
-1.99268e-05,-0.0036,-0.0652
-1.99264e-05,-0.0036,-0.0652
-1.99260e-05,-0.0036,-0.066
-1.99256e-05,-0.0038,-0.0652
-1.99252e-05,-0.004,-0.0636
-1.99248e-05,-0.0038,-0.066
-1.99244e-05,-0.0034,-0.0652
-1.99240e-05,-0.0038,-0.066
-1.99236e-05,-0.0038,-0.0652
-1.99232e-05,-0.0034,-0.0652
-1.99228e-05,-0.0038,-0.0644
-1.99224e-05,-0.0038,-0.0644
-1.99220e-05,-0.0042,-0.0652
-1.99216e-05,-0.0036,-0.0652
-1.99212e-05,-0.0038,-0.0644
-1.99208e-05,-0.0038,-0.0644
-1.99204e-05,-0.0038,-0.0644
-1.99200e-05,-0.004,-0.0636
-1.99196e-05,-0.0038,-0.0644
-1.99192e-05,-0.004,-0.0652
-1.99188e-05,-0.004,-0.0644
-1.99184e-05,-0.004,-0.0644
-1.99180e-05,-0.0044,-0.0636
-1.99176e-05,-0.0044,-0.0644
-1.99172e-05,-0.0038,-0.0644
-1.99168e-05,-0.0038,-0.0644
-1.99164e-05,-0.0036,-0.0652
-1.99160e-05,-0.004,-0.0652
-1.99156e-05,-0.0038,-0.0636
-1.99152e-05,-0.004,-0.0644
-1.99148e-05,-0.0038,-0.0644
-1.99144e-05,-0.0034,-0.0644
-1.99140e-05,-0.0036,-0.0652
-1.99136e-05,-0.004,-0.0636
-1.99132e-05,-0.004,-0.0644
-1.99128e-05,-0.0036,-0.0652
-1.99124e-05,-0.0038,-0.0652
-1.99120e-05,-0.0038,-0.066
-1.99116e-05,-0.0032,-0.0644
-1.99112e-05,-0.0038,-0.0636
-1.99108e-05,-0.0038,-0.0652
-1.99104e-05,-0.0038,-0.0644
-1.99100e-05,-0.0038,-0.0652
-1.99096e-05,-0.0038,-0.0628
-1.99092e-05,-0.0038,-0.0628
-1.99088e-05,-0.004,-0.0644
-1.99084e-05,-0.004,-0.0644
-1.99080e-05,-0.0044,-0.0644
-1.99076e-05,-0.0044,-0.0636
-1.99072e-05,-0.0036,-0.0644
-1.99068e-05,-0.0038,-0.0644
-1.99064e-05,-0.0036,-0.0636
-1.99060e-05,-0.0036,-0.0636
-1.99056e-05,-0.004,-0.0652
-1.99052e-05,-0.0038,-0.0652
-1.99048e-05,-0.0038,-0.0636
-1.99044e-05,-0.0038,-0.0636
-1.99040e-05,-0.0038,-0.0644
-1.99036e-05,-0.0038,-0.0644
-1.99032e-05,-0.0038,-0.0644
-1.99028e-05,-0.0038,-0.0644
-1.99024e-05,-0.0034,-0.066
-1.99020e-05,-0.0036,-0.0636
-1.99016e-05,-0.0036,-0.0644
-1.99012e-05,-0.0036,-0.0636
-1.99008e-05,-0.0036,-0.0644
-1.99004e-05,-0.0034,-0.0628
-1.99000e-05,-0.0038,-0.0636
-1.98996e-05,-0.0038,-0.0644
-1.98992e-05,-0.004,-0.0644
-1.98988e-05,-0.004,-0.0644
-1.98984e-05,-0.0042,-0.0652
-1.98980e-05,-0.0038,-0.0636
-1.98976e-05,-0.0036,-0.066
-1.98972e-05,-0.0038,-0.0652
-1.98968e-05,-0.0036,-0.0644
-1.98964e-05,-0.0036,-0.0644
-1.98960e-05,-0.0038,-0.0644
-1.98956e-05,-0.0038,-0.0644
-1.98952e-05,-0.0034,-0.0652
-1.98948e-05,-0.0038,-0.0644
-1.98944e-05,-0.0034,-0.0652
-1.98940e-05,-0.0034,-0.0652
-1.98936e-05,-0.0036,-0.0644
-1.98932e-05,-0.0036,-0.0644
-1.98928e-05,-0.0034,-0.0652
-1.98924e-05,-0.0034,-0.0644
-1.98920e-05,-0.0034,-0.0652
-1.98916e-05,-0.0038,-0.0652
-1.98912e-05,-0.0036,-0.0644
-1.98908e-05,-0.0036,-0.0636
-1.98904e-05,-0.0034,-0.0644
-1.98900e-05,-0.0038,-0.0636
-1.98896e-05,-0.0034,-0.0652
-1.98892e-05,-0.0034,-0.0652
-1.98888e-05,-0.0038,-0.0652
-1.98884e-05,-0.0036,-0.0636
-1.98880e-05,-0.0038,-0.0644
-1.98876e-05,-0.0036,-0.0644
-1.98872e-05,-0.0038,-0.0644
-1.98868e-05,-0.0038,-0.0636
-1.98864e-05,-0.0038,-0.0644
-1.98860e-05,-0.0036,-0.0644
-1.98856e-05,-0.0036,-0.0652
-1.98852e-05,-0.0034,-0.0644
-1.98848e-05,-0.0038,-0.0644
-1.98844e-05,-0.0036,-0.0644
-1.98840e-05,-0.0036,-0.0636
-1.98836e-05,-0.0038,-0.0636
-1.98832e-05,-0.0038,-0.066
-1.98828e-05,-0.0034,-0.0636
-1.98824e-05,-0.0034,-0.0644
-1.98820e-05,-0.0036,-0.0644
-1.98816e-05,-0.004,-0.0644
-1.98812e-05,-0.004,-0.0644
-1.98808e-05,-0.0042,-0.0636
-1.98804e-05,-0.0038,-0.0644
-1.98800e-05,-0.0036,-0.0652
-1.98796e-05,-0.0036,-0.0652
-1.98792e-05,-0.0038,-0.0652
-1.98788e-05,-0.0036,-0.066
-1.98784e-05,-0.0036,-0.0636
-1.98780e-05,-0.0034,-0.0652
-1.98776e-05,-0.0032,-0.0652
-1.98772e-05,-0.0034,-0.066
-1.98768e-05,-0.0034,-0.0644
-1.98764e-05,-0.0034,-0.0644
-1.98760e-05,-0.0038,-0.0644
-1.98756e-05,-0.0036,-0.0636
-1.98752e-05,-0.0036,-0.0636
-1.98748e-05,-0.0038,-0.0644
-1.98744e-05,-0.0034,-0.0644
-1.98740e-05,-0.0036,-0.0644
-1.98736e-05,-0.004,-0.0644
-1.98732e-05,-0.004,-0.0644
-1.98728e-05,-0.0038,-0.0644
-1.98724e-05,-0.0038,-0.0644
-1.98720e-05,-0.004,-0.0652
-1.98716e-05,-0.004,-0.0636
-1.98712e-05,-0.0036,-0.0644
-1.98708e-05,-0.0036,-0.0628
-1.98704e-05,-0.0034,-0.0628
-1.98700e-05,-0.0034,-0.0636
-1.98696e-05,-0.0034,-0.0644
-1.98692e-05,-0.0038,-0.0644
-1.98688e-05,-0.0036,-0.0644
-1.98684e-05,-0.0034,-0.0636
-1.98680e-05,-0.0034,-0.0644
-1.98676e-05,-0.0034,-0.0644
-1.98672e-05,-0.0038,-0.0652
-1.98668e-05,-0.004,-0.0652
-1.98664e-05,-0.0036,-0.0636
-1.98660e-05,-0.0034,-0.0644
-1.98656e-05,-0.0032,-0.0636
-1.98652e-05,-0.0032,-0.0636
-1.98648e-05,-0.0034,-0.0652
-1.98644e-05,-0.0036,-0.0636
-1.98640e-05,-0.0036,-0.0636
-1.98636e-05,-0.0036,-0.0644
-1.98632e-05,-0.0036,-0.0644
-1.98628e-05,-0.0038,-0.0644
-1.98624e-05,-0.0038,-0.0644
-1.98620e-05,-0.0036,-0.066
-1.98616e-05,-0.0036,-0.066
-1.98612e-05,-0.0034,-0.0644
-1.98608e-05,-0.0036,-0.0652
-1.98604e-05,-0.0038,-0.0644
-1.98600e-05,-0.004,-0.0652
-1.98596e-05,-0.0036,-0.0652
-1.98592e-05,-0.0038,-0.0644
-1.98588e-05,-0.0038,-0.0644
-1.98584e-05,-0.0038,-0.0628
-1.98580e-05,-0.0036,-0.0628
-1.98576e-05,-0.0036,-0.066
-1.98572e-05,-0.0038,-0.0636
-1.98568e-05,-0.0034,-0.0652
-1.98564e-05,-0.0036,-0.0644
-1.98560e-05,-0.0038,-0.0652
-1.98556e-05,-0.0034,-0.0652
-1.98552e-05,-0.0042,-0.0644
-1.98548e-05,-0.0042,-0.0644
-1.98544e-05,-0.0038,-0.0652
-1.98540e-05,-0.0042,-0.0652
-1.98536e-05,-0.0036,-0.066
-1.98532e-05,-0.0034,-0.0652
-1.98528e-05,-0.0034,-0.0636
-1.98524e-05,-0.0034,-0.0628
-1.98520e-05,-0.0038,-0.0644
-1.98516e-05,-0.0038,-0.0652
-1.98512e-05,-0.0038,-0.0644
-1.98508e-05,-0.0036,-0.0644
-1.98504e-05,-0.0036,-0.0644
-1.98500e-05,-0.0036,-0.0652
-1.98496e-05,-0.0036,-0.0644
-1.98492e-05,-0.0038,-0.0644
-1.98488e-05,-0.0036,-0.0644
-1.98484e-05,-0.0034,-0.0644
-1.98480e-05,-0.0038,-0.0644
-1.98476e-05,-0.0038,-0.0652
-1.98472e-05,-0.0038,-0.0652
-1.98468e-05,-0.0036,-0.0644
-1.98464e-05,-0.0036,-0.0636
-1.98460e-05,-0.0038,-0.0644
-1.98456e-05,-0.0038,-0.066
-1.98452e-05,-0.0038,-0.0636
-1.98448e-05,-0.0038,-0.0644
-1.98444e-05,-0.0038,-0.0644
-1.98440e-05,-0.0034,-0.0652
-1.98436e-05,-0.0038,-0.0636
-1.98432e-05,-0.0042,-0.0644
-1.98428e-05,-0.0036,-0.0644
-1.98424e-05,-0.0038,-0.0644
-1.98420e-05,-0.0036,-0.0644
-1.98416e-05,-0.0034,-0.0644
-1.98412e-05,-0.0038,-0.0644
-1.98408e-05,-0.0036,-0.0636
-1.98404e-05,-0.0034,-0.0644
-1.98400e-05,-0.0036,-0.0652
-1.98396e-05,-0.0034,-0.0644
-1.98392e-05,-0.0034,-0.0644
-1.98388e-05,-0.0034,-0.0652
-1.98384e-05,-0.0034,-0.0644
-1.98380e-05,-0.004,-0.0652
-1.98376e-05,-0.0036,-0.0644
-1.98372e-05,-0.0036,-0.0652
-1.98368e-05,-0.0036,-0.066
-1.98364e-05,-0.0034,-0.0652
-1.98360e-05,-0.0032,-0.066
-1.98356e-05,-0.0036,-0.0644
-1.98352e-05,-0.0038,-0.0644
-1.98348e-05,-0.0038,-0.0652
-1.98344e-05,-0.0036,-0.0652
-1.98340e-05,-0.0036,-0.0644
-1.98336e-05,-0.0038,-0.0644
-1.98332e-05,-0.0036,-0.0644
-1.98328e-05,-0.004,-0.0652
-1.98324e-05,-0.0036,-0.066
-1.98320e-05,-0.0036,-0.0652
-1.98316e-05,-0.0036,-0.0644
-1.98312e-05,-0.0036,-0.0644
-1.98308e-05,-0.0032,-0.0668
-1.98304e-05,-0.0034,-0.0652
-1.98300e-05,-0.0036,-0.066
-1.98296e-05,-0.0036,-0.0652
-1.98292e-05,-0.0036,-0.0652
-1.98288e-05,-0.0038,-0.0644
-1.98284e-05,-0.0038,-0.0644
-1.98280e-05,-0.0036,-0.0652
-1.98276e-05,-0.0036,-0.0644
-1.98272e-05,-0.0036,-0.066
-1.98268e-05,-0.0034,-0.0652
-1.98264e-05,-0.0032,-0.0644
-1.98260e-05,-0.0032,-0.0644
-1.98256e-05,-0.0036,-0.0628
-1.98252e-05,-0.0036,-0.0652
-1.98248e-05,-0.0038,-0.066
-1.98244e-05,-0.0036,-0.066
-1.98240e-05,-0.004,-0.0668
-1.98236e-05,-0.004,-0.0644
-1.98232e-05,-0.0038,-0.0652
-1.98228e-05,-0.0036,-0.0644
-1.98224e-05,-0.0038,-0.066
-1.98220e-05,-0.0038,-0.0644
-1.98216e-05,-0.0038,-0.0652
-1.98212e-05,-0.0038,-0.0644
-1.98208e-05,-0.0036,-0.0644
-1.98204e-05,-0.0038,-0.0652
-1.98200e-05,-0.0032,-0.0644
-1.98196e-05,-0.0032,-0.0644
-1.98192e-05,-0.0036,-0.0644
-1.98188e-05,-0.0036,-0.0652
-1.98184e-05,-0.0038,-0.0644
-1.98180e-05,-0.0034,-0.0644
-1.98176e-05,-0.0032,-0.0652
-1.98172e-05,-0.003,-0.0652
-1.98168e-05,-0.0034,-0.0652
-1.98164e-05,-0.0034,-0.0652
-1.98160e-05,-0.0034,-0.0636
-1.98156e-05,-0.003,-0.0644
-1.98152e-05,-0.003,-0.0652
-1.98148e-05,-0.0032,-0.0644
-1.98144e-05,-0.0038,-0.0636
-1.98140e-05,-0.0034,-0.066
-1.98136e-05,-0.0036,-0.066
-1.98132e-05,-0.0038,-0.0644
-1.98128e-05,-0.0038,-0.0644
-1.98124e-05,-0.0034,-0.0644
-1.98120e-05,-0.0038,-0.0636
-1.98116e-05,-0.0038,-0.0644
-1.98112e-05,-0.0036,-0.0652
-1.98108e-05,-0.0038,-0.0636
-1.98104e-05,-0.0036,-0.0636
-1.98100e-05,-0.0036,-0.0636
-1.98096e-05,-0.0036,-0.0644
-1.98092e-05,-0.0042,-0.066
-1.98088e-05,-0.0034,-0.0644
-1.98084e-05,-0.0036,-0.0636
-1.98080e-05,-0.0038,-0.0652
-1.98076e-05,-0.0038,-0.0644
-1.98072e-05,-0.004,-0.0652
-1.98068e-05,-0.004,-0.0636
-1.98064e-05,-0.0038,-0.0636
-1.98060e-05,-0.0034,-0.0644
-1.98056e-05,-0.0034,-0.0652
-1.98052e-05,-0.0036,-0.0644
-1.98048e-05,-0.0036,-0.0644
-1.98044e-05,-0.003,-0.0652
-1.98040e-05,-0.0038,-0.0652
-1.98036e-05,-0.0038,-0.0636
-1.98032e-05,-0.0038,-0.0652
-1.98028e-05,-0.0034,-0.0652
-1.98024e-05,-0.0038,-0.0636
-1.98020e-05,-0.0036,-0.0652
-1.98016e-05,-0.0034,-0.0644
-1.98012e-05,-0.0034,-0.0652
-1.98008e-05,-0.0034,-0.0652
-1.98004e-05,-0.0036,-0.066
-1.98000e-05,-0.0038,-0.0652
-1.97996e-05,-0.004,-0.0644
-1.97992e-05,-0.0036,-0.0652
-1.97988e-05,-0.0036,-0.0644
-1.97984e-05,-0.0034,-0.0636
-1.97980e-05,-0.0032,-0.066
-1.97976e-05,-0.0036,-0.0644
-1.97972e-05,-0.0042,-0.0644
-1.97968e-05,-0.0038,-0.0644
-1.97964e-05,-0.0036,-0.0652
-1.97960e-05,-0.0036,-0.0644
-1.97956e-05,-0.0036,-0.0644
-1.97952e-05,-0.0034,-0.0652
-1.97948e-05,-0.0034,-0.0644
-1.97944e-05,-0.0038,-0.0628
-1.97940e-05,-0.0036,-0.0636
-1.97936e-05,-0.0036,-0.0652
-1.97932e-05,-0.0034,-0.0652
-1.97928e-05,-0.0038,-0.0636
-1.97924e-05,-0.0036,-0.0636
-1.97920e-05,-0.0034,-0.066
-1.97916e-05,-0.0036,-0.0636
-1.97912e-05,-0.0038,-0.0636
-1.97908e-05,-0.0038,-0.0644
-1.97904e-05,-0.0036,-0.0644
-1.97900e-05,-0.0038,-0.0628
-1.97896e-05,-0.004,-0.0644
-1.97892e-05,-0.004,-0.0644
-1.97888e-05,-0.0038,-0.0652
-1.97884e-05,-0.0036,-0.0644
-1.97880e-05,-0.0038,-0.0652
-1.97876e-05,-0.0038,-0.0644
-1.97872e-05,-0.0034,-0.0644
-1.97868e-05,-0.0034,-0.0644
-1.97864e-05,-0.0032,-0.0644
-1.97860e-05,-0.0034,-0.0644
-1.97856e-05,-0.0034,-0.0652
-1.97852e-05,-0.0036,-0.0644
-1.97848e-05,-0.0036,-0.0636
-1.97844e-05,-0.0034,-0.0628
-1.97840e-05,-0.0034,-0.0652
-1.97836e-05,-0.0038,-0.0652
-1.97832e-05,-0.0038,-0.0636
-1.97828e-05,-0.0036,-0.0628
-1.97824e-05,-0.0038,-0.0652
-1.97820e-05,-0.0036,-0.0652
-1.97816e-05,-0.0036,-0.0652
-1.97812e-05,-0.004,-0.0628
-1.97808e-05,-0.004,-0.0644
-1.97804e-05,-0.0038,-0.0652
-1.97800e-05,-0.0034,-0.0652
-1.97796e-05,-0.0036,-0.0644
-1.97792e-05,-0.0036,-0.0652
-1.97788e-05,-0.0034,-0.0668
-1.97784e-05,-0.0038,-0.0652
-1.97780e-05,-0.0038,-0.0644
-1.97776e-05,-0.0036,-0.066
-1.97772e-05,-0.0034,-0.066
-1.97768e-05,-0.0038,-0.0644
-1.97764e-05,-0.0038,-0.0644
-1.97760e-05,-0.0036,-0.0652
-1.97756e-05,-0.0038,-0.0644
-1.97752e-05,-0.0036,-0.0644
-1.97748e-05,-0.0038,-0.0644
-1.97744e-05,-0.0036,-0.0644
-1.97740e-05,-0.0034,-0.0652
-1.97736e-05,-0.004,-0.0652
-1.97732e-05,-0.004,-0.0636
-1.97728e-05,-0.0038,-0.0652
-1.97724e-05,-0.0038,-0.0644
-1.97720e-05,-0.004,-0.0652
-1.97716e-05,-0.004,-0.0644
-1.97712e-05,-0.0038,-0.0644
-1.97708e-05,-0.004,-0.0644
-1.97704e-05,-0.0042,-0.0644
-1.97700e-05,-0.004,-0.0652
-1.97696e-05,-0.0038,-0.0652
-1.97692e-05,-0.0036,-0.0636
-1.97688e-05,-0.004,-0.0644
-1.97684e-05,-0.004,-0.0652
-1.97680e-05,-0.004,-0.0644
-1.97676e-05,-0.0038,-0.0652
-1.97672e-05,-0.004,-0.0644
-1.97668e-05,-0.004,-0.0644
-1.97664e-05,-0.0038,-0.0644
-1.97660e-05,-0.0038,-0.0652
-1.97656e-05,-0.0038,-0.0652
-1.97652e-05,-0.0036,-0.0644
-1.97648e-05,-0.0038,-0.0652
-1.97644e-05,-0.004,-0.0652
-1.97640e-05,-0.0038,-0.066
-1.97636e-05,-0.0038,-0.0644
-1.97632e-05,-0.004,-0.0636
-1.97628e-05,-0.004,-0.0644
-1.97624e-05,-0.0038,-0.0644
-1.97620e-05,-0.004,-0.0644
-1.97616e-05,-0.0038,-0.0652
-1.97612e-05,-0.0034,-0.0652
-1.97608e-05,-0.0034,-0.0652
-1.97604e-05,-0.0036,-0.0644
-1.97600e-05,-0.0038,-0.0652
-1.97596e-05,-0.0038,-0.0644
-1.97592e-05,-0.0038,-0.0636
-1.97588e-05,-0.0036,-0.0652
-1.97584e-05,-0.0034,-0.0652
-1.97580e-05,-0.0036,-0.0644
-1.97576e-05,-0.0036,-0.0652
-1.97572e-05,-0.0034,-0.0652
-1.97568e-05,-0.0034,-0.066
-1.97564e-05,-0.0038,-0.0652
-1.97560e-05,-0.0042,-0.0652
-1.97556e-05,-0.004,-0.0652
-1.97552e-05,-0.0036,-0.0644
-1.97548e-05,-0.0038,-0.0636
-1.97544e-05,-0.0042,-0.0652
-1.97540e-05,-0.0036,-0.0652
-1.97536e-05,-0.0038,-0.0652
-1.97532e-05,-0.004,-0.0644
-1.97528e-05,-0.0038,-0.0652
-1.97524e-05,-0.0038,-0.0644
-1.97520e-05,-0.0038,-0.0644
-1.97516e-05,-0.0038,-0.0628
-1.97512e-05,-0.004,-0.0652
-1.97508e-05,-0.004,-0.066
-1.97504e-05,-0.0038,-0.0644
-1.97500e-05,-0.0038,-0.0644
-1.97496e-05,-0.004,-0.066
-1.97492e-05,-0.0042,-0.0644
-1.97488e-05,-0.0044,-0.0644
-1.97484e-05,-0.004,-0.0644
-1.97480e-05,-0.004,-0.0644
-1.97476e-05,-0.004,-0.0636
-1.97472e-05,-0.004,-0.0636
-1.97468e-05,-0.004,-0.0636
-1.97464e-05,-0.004,-0.0644
-1.97460e-05,-0.0042,-0.0628
-1.97456e-05,-0.0038,-0.0644
-1.97452e-05,-0.004,-0.0644
-1.97448e-05,-0.004,-0.0652
-1.97444e-05,-0.004,-0.0652
-1.97440e-05,-0.004,-0.0652
-1.97436e-05,-0.0036,-0.0652
-1.97432e-05,-0.0036,-0.0652
-1.97428e-05,-0.0038,-0.0644
-1.97424e-05,-0.0042,-0.0652
-1.97420e-05,-0.004,-0.0652
-1.97416e-05,-0.0038,-0.0652
-1.97412e-05,-0.0038,-0.0652
-1.97408e-05,-0.0038,-0.0652
-1.97404e-05,-0.004,-0.0644
-1.97400e-05,-0.0038,-0.0652
-1.97396e-05,-0.0034,-0.0644
-1.97392e-05,-0.0036,-0.0644
-1.97388e-05,-0.0036,-0.0644
-1.97384e-05,-0.0038,-0.0644
-1.97380e-05,-0.0034,-0.0636
-1.97376e-05,-0.0038,-0.0652
-1.97372e-05,-0.0034,-0.0652
-1.97368e-05,-0.0036,-0.0652
-1.97364e-05,-0.0038,-0.066
-1.97360e-05,-0.0036,-0.066
-1.97356e-05,-0.0036,-0.066
-1.97352e-05,-0.0036,-0.0644
-1.97348e-05,-0.0036,-0.0652
-1.97344e-05,-0.0036,-0.0644
-1.97340e-05,-0.0036,-0.0644
-1.97336e-05,-0.0036,-0.0644
-1.97332e-05,-0.0036,-0.0652
-1.97328e-05,-0.0036,-0.066
-1.97324e-05,-0.0034,-0.0652
-1.97320e-05,-0.0034,-0.0652
-1.97316e-05,-0.0038,-0.066
-1.97312e-05,-0.0038,-0.0652
-1.97308e-05,-0.0036,-0.0644
-1.97304e-05,-0.0038,-0.0644
-1.97300e-05,-0.0038,-0.0644
-1.97296e-05,-0.0036,-0.0652
-1.97292e-05,-0.0038,-0.0636
-1.97288e-05,-0.0038,-0.0652
-1.97284e-05,-0.0038,-0.0652
-1.97280e-05,-0.0038,-0.0652
-1.97276e-05,-0.0034,-0.0652
