PhotoDiode_Data/WeakProbeFirst/tek0002ALL.csv

Model,MSO3014
Firmware Version,2.38

Waveform Type,ANALOG,
Point Format,Y,
Horizontal Units,s,
Horizontal Scale,1,
Horizontal Delay,0,
Sample Interval,0.0001,
Record Length,100000,
Gating,0.0% to 100.0%,
Probe Attenuation,1,
Vertical Units,V,
Vertical Offset,0,
Vertical Scale,1,
Vertical Position,2,
,,
,,
,,
Label,,
TIME,CH1,CH2
-5.00000e+00,-2.84,1.4
-4.99990e+00,-2.76,1.4
-4.99980e+00,-2.88,1.2
-4.99970e+00,-2.72,1.2
-4.99960e+00,-2.76,1.2
-4.99950e+00,-2.84,1.4
-4.99940e+00,-2.8,1.2
-4.99930e+00,-2.84,1.2
-4.99920e+00,-2.84,1
-4.99910e+00,-2.76,1.4
-4.99900e+00,-2.8,1.2
-4.99890e+00,-2.72,1.2
-4.99880e+00,-2.84,1.4
-4.99870e+00,-2.76,1
-4.99860e+00,-2.8,1.2
-4.99850e+00,-2.8,1.2
-4.99840e+00,-2.84,1.4
-4.99830e+00,-2.8,1.4
-4.99820e+00,-2.8,1.4
-4.99810e+00,-2.76,1.6
-4.99800e+00,-2.8,1.2
-4.99790e+00,-2.8,1.4
-4.99780e+00,-2.76,1.4
-4.99770e+00,-2.76,1.4
-4.99760e+00,-2.8,1.2
-4.99750e+00,-2.88,1.2
-4.99740e+00,-2.8,1.2
-4.99730e+00,-2.84,1.2
-4.99720e+00,-2.8,1.2
-4.99710e+00,-2.84,1.4
-4.99700e+00,-2.84,1
-4.99690e+00,-2.84,1.4
-4.99680e+00,-2.8,1.2
-4.99670e+00,-2.8,1.2
-4.99660e+00,-2.76,1.4
-4.99650e+00,-2.88,1.4
-4.99640e+00,-2.8,1.2
-4.99630e+00,-2.84,1.4
-4.99620e+00,-2.8,1.2
-4.99610e+00,-2.8,1.4
-4.99600e+00,-2.76,1.4
-4.99590e+00,-2.8,1.4
-4.99580e+00,-2.72,1.2
-4.99570e+00,-2.84,1.2
-4.99560e+00,-2.8,1.2
-4.99550e+00,-2.84,1
-4.99540e+00,-2.84,1.2
-4.99530e+00,-2.8,1.4
-4.99520e+00,-2.84,1.2
-4.99510e+00,-2.84,1.6
-4.99500e+00,-2.8,1.2
-4.99490e+00,-2.76,1.4
-4.99480e+00,-2.84,1.4
-4.99470e+00,-2.8,1.2
-4.99460e+00,-2.8,1.4
-4.99450e+00,-2.76,1.2
-4.99440e+00,-2.84,1.4
-4.99430e+00,-2.76,0.8
-4.99420e+00,-2.84,1.4
-4.99410e+00,-2.8,1.2
-4.99400e+00,-2.8,1.4
-4.99390e+00,-2.76,1.4
-4.99380e+00,-2.8,1.2
-4.99370e+00,-2.8,1
-4.99360e+00,-2.8,1.2
-4.99350e+00,-2.8,1.6
-4.99340e+00,-2.84,1.2
-4.99330e+00,-2.72,1.4
-4.99320e+00,-2.76,1.6
-4.99310e+00,-2.8,1.2
-4.99300e+00,-2.8,1.4
-4.99290e+00,-2.8,1
-4.99280e+00,-2.8,1.4
-4.99270e+00,-2.8,1.4
-4.99260e+00,-2.8,1.2
-4.99250e+00,-2.8,1.4
-4.99240e+00,-2.88,1.2
-4.99230e+00,-2.8,1.2
-4.99220e+00,-2.88,1.2
-4.99210e+00,-2.76,1
-4.99200e+00,-2.84,1.2
-4.99190e+00,-2.8,1.8
-4.99180e+00,-2.8,1.4
-4.99170e+00,-2.76,1.4
-4.99160e+00,-2.8,1.4
-4.99150e+00,-2.72,1.6
-4.99140e+00,-2.84,1.4
-4.99130e+00,-2.8,1.6
-4.99120e+00,-2.8,1.4
-4.99110e+00,-2.8,1.4
-4.99100e+00,-2.84,1.2
-4.99090e+00,-2.88,1.4
-4.99080e+00,-2.8,1.2
-4.99070e+00,-2.76,1.2
-4.99060e+00,-2.8,1.2
-4.99050e+00,-2.8,1.4
-4.99040e+00,-2.76,1.6
-4.99030e+00,-2.8,1.4
-4.99020e+00,-2.84,1.4
-4.99010e+00,-2.84,1.2
-4.99000e+00,-2.76,1
-4.98990e+00,-2.8,1.2
-4.98980e+00,-2.76,1.4
-4.98970e+00,-2.8,1.6
-4.98960e+00,-2.76,1.2
-4.98950e+00,-2.8,1.4
-4.98940e+00,-2.8,1.4
-4.98930e+00,-2.8,1
-4.98920e+00,-2.44,1.2
-4.98910e+00,-2.76,1.2
-4.98900e+00,-2.8,1.2
-4.98890e+00,-2.84,1.4
-4.98880e+00,-2.72,1.4
-4.98870e+00,-2.84,1.4
-4.98860e+00,-2.76,1.2
-4.98850e+00,-2.8,1.4
-4.98840e+00,-2.84,1.4
-4.98830e+00,-2.8,0.8
-4.98820e+00,-2.76,1.6
-4.98810e+00,-2.84,1.4
-4.98800e+00,-2.8,1.4
-4.98790e+00,-2.84,1.2
-4.98780e+00,-2.84,1
-4.98770e+00,-2.84,1.4
-4.98760e+00,-2.72,1.2
-4.98750e+00,-2.72,1.4
-4.98740e+00,-2.8,1.4
-4.98730e+00,-2.72,1.2
-4.98720e+00,-2.8,1.4
-4.98710e+00,-2.8,1.4
-4.98700e+00,-2.8,1
-4.98690e+00,-2.84,1.2
-4.98680e+00,-2.76,1.4
-4.98670e+00,-2.84,1.4
-4.98660e+00,-2.76,1.2
-4.98650e+00,-2.8,1.4
-4.98640e+00,-2.8,1.2
-4.98630e+00,-2.8,1
-4.98620e+00,-2.84,1.2
-4.98610e+00,-2.84,1.2
-4.98600e+00,-2.76,1.4
-4.98590e+00,-2.76,1.6
-4.98580e+00,-2.8,1.2
-4.98570e+00,-2.8,1
-4.98560e+00,-2.8,1.4
-4.98550e+00,-2.72,1.4
-4.98540e+00,-2.8,1.4
-4.98530e+00,-2.76,1.2
-4.98520e+00,-2.8,1
-4.98510e+00,-2.76,1.2
-4.98500e+00,-2.84,1.4
-4.98490e+00,-2.8,1.4
-4.98480e+00,-2.84,1.2
-4.98470e+00,-2.8,1.6
-4.98460e+00,-2.8,1.6
-4.98450e+00,-2.8,1.4
-4.98440e+00,-2.8,1
-4.98430e+00,-2.8,1.2
-4.98420e+00,-2.84,1.2
-4.98410e+00,-2.84,1.6
-4.98400e+00,-2.8,1.4
-4.98390e+00,-2.76,1.2
-4.98380e+00,-2.88,1.2
-4.98370e+00,-2.8,1.2
-4.98360e+00,-2.8,1.6
-4.98350e+00,-2.8,1.4
-4.98340e+00,-2.72,1.8
-4.98330e+00,-2.8,1.6
-4.98320e+00,-2.8,1.4
-4.98310e+00,-2.8,1.2
-4.98300e+00,-2.84,1.4
-4.98290e+00,-2.84,1.6
-4.98280e+00,-2.8,1.2
-4.98270e+00,-2.76,1.2
-4.98260e+00,-2.84,1.4
-4.98250e+00,-2.72,1.2
-4.98240e+00,-2.84,1.4
-4.98230e+00,-2.84,1.2
-4.98220e+00,-2.84,1.4
-4.98210e+00,-2.8,1.2
-4.98200e+00,-2.8,1.2
-4.98190e+00,-2.8,1.2
-4.98180e+00,-2.8,1.2
-4.98170e+00,-2.72,1.2
-4.98160e+00,-2.72,1.2
-4.98150e+00,-2.8,1.6
-4.98140e+00,-2.8,1.6
-4.98130e+00,-2.8,1.4
-4.98120e+00,-2.88,1.4
-4.98110e+00,-2.8,1.2
-4.98100e+00,-2.84,1.6
-4.98090e+00,-2.8,1.2
-4.98080e+00,-2.72,1.2
-4.98070e+00,-2.8,1.2
-4.98060e+00,-2.8,1.4
-4.98050e+00,-2.84,1.2
-4.98040e+00,-2.8,1.2
-4.98030e+00,-2.8,1.2
-4.98020e+00,-2.84,1.2
-4.98010e+00,-2.84,1.4
-4.98000e+00,-2.8,0.8
-4.97990e+00,-2.8,1.4
-4.97980e+00,-2.8,1.4
-4.97970e+00,-2.76,1.4
-4.97960e+00,-2.84,1.4
-4.97950e+00,-2.84,1.4
-4.97940e+00,-2.84,1.6
-4.97930e+00,-2.8,1.4
-4.97920e+00,-2.8,1.2
-4.97910e+00,-2.84,1
-4.97900e+00,-2.8,1.2
-4.97890e+00,-2.8,1.4
-4.97880e+00,-2.8,1.4
-4.97870e+00,-2.84,1.2
-4.97860e+00,-2.84,1.4
-4.97850e+00,-2.84,1.6
-4.97840e+00,-2.8,1.4
-4.97830e+00,-2.76,1.6
-4.97820e+00,-2.8,1.2
-4.97810e+00,-2.76,1.4
-4.97800e+00,-2.76,1.6
-4.97790e+00,-2.76,1.2
-4.97780e+00,-2.76,1.6
-4.97770e+00,-2.8,1.4
-4.97760e+00,-2.8,1.6
-4.97750e+00,-2.76,1.4
-4.97740e+00,-2.84,1.4
-4.97730e+00,-2.8,1.6
-4.97720e+00,-2.8,1.4
-4.97710e+00,-2.88,1.4
-4.97700e+00,-2.76,1.6
-4.97690e+00,-2.76,1.4
-4.97680e+00,-2.76,1.4
-4.97670e+00,-2.8,1.4
-4.97660e+00,-2.76,1.4
-4.97650e+00,-2.76,1.6
-4.97640e+00,-2.84,1.2
-4.97630e+00,-2.76,1.2
-4.97620e+00,-2.8,1.4
-4.97610e+00,-2.76,1.4
-4.97600e+00,-2.76,1.4
-4.97590e+00,-2.8,1.4
-4.97580e+00,-2.8,1.8
-4.97570e+00,-2.84,1.4
-4.97560e+00,-2.8,1.2
-4.97550e+00,-2.76,1.2
-4.97540e+00,-2.8,1.4
-4.97530e+00,-2.84,1.4
-4.97520e+00,-2.8,1.2
-4.97510e+00,-2.8,1.2
-4.97500e+00,-2.8,1.6
-4.97490e+00,-2.84,1.2
-4.97480e+00,-2.76,1.4
-4.97470e+00,-2.8,1
-4.97460e+00,-2.84,1.4
-4.97450e+00,-2.8,1.2
-4.97440e+00,-2.84,1.2
-4.97430e+00,-2.8,0.8
-4.97420e+00,-2.72,1.6
-4.97410e+00,-2.8,1.4
-4.97400e+00,-2.8,1.4
-4.97390e+00,-2.84,1.4
-4.97380e+00,-2.72,1.2
-4.97370e+00,-2.76,1.8
-4.97360e+00,-2.72,1.4
-4.97350e+00,-2.8,1.2
-4.97340e+00,-2.8,1.4
-4.97330e+00,-2.84,1.2
-4.97320e+00,-2.8,1.6
-4.97310e+00,-2.76,1.4
-4.97300e+00,-2.76,1.2
-4.97290e+00,-2.8,1.2
-4.97280e+00,-2.84,1.6
-4.97270e+00,-2.84,1.6
-4.97260e+00,-2.84,1.4
-4.97250e+00,-2.84,1.4
-4.97240e+00,-2.76,1.2
-4.97230e+00,-2.84,1.4
-4.97220e+00,-2.8,1.4
-4.97210e+00,-2.8,1.2
-4.97200e+00,-2.76,1.4
-4.97190e+00,-2.84,1
-4.97180e+00,-2.84,1.4
-4.97170e+00,-2.84,1.2
-4.97160e+00,-2.8,1.4
-4.97150e+00,-2.84,1.4
-4.97140e+00,-2.76,1.4
-4.97130e+00,-2.76,1
-4.97120e+00,-2.8,1.4
-4.97110e+00,-2.88,1.6
-4.97100e+00,-2.8,1.4
-4.97090e+00,-2.76,1.4
-4.97080e+00,-2.8,1.4
-4.97070e+00,-2.8,2
-4.97060e+00,-2.8,1.6
-4.97050e+00,-2.8,1.2
-4.97040e+00,-2.8,1.2
-4.97030e+00,-2.76,1.4
-4.97020e+00,-2.8,1.4
-4.97010e+00,-2.8,1.4
-4.97000e+00,-2.76,1.4
-4.96990e+00,-2.8,1.2
-4.96980e+00,-2.76,1.6
-4.96970e+00,-2.8,1.2
-4.96960e+00,-2.84,1
-4.96950e+00,-2.8,1.2
-4.96940e+00,-2.84,1
-4.96930e+00,-2.84,1.4
-4.96920e+00,-2.84,1.6
-4.96910e+00,-2.8,1.4
-4.96900e+00,-2.84,1.6
-4.96890e+00,-2.76,1.6
-4.96880e+00,-2.8,1.2
-4.96870e+00,-2.8,1.4
-4.96860e+00,-2.76,1.6
-4.96850e+00,-2.8,1.8
-4.96840e+00,-2.76,1.6
-4.96830e+00,-2.8,1.4
-4.96820e+00,-2.76,1.2
-4.96810e+00,-2.76,1.4
-4.96800e+00,-2.8,1.4
-4.96790e+00,-2.8,1.4
-4.96780e+00,-2.8,1.4
-4.96770e+00,-2.84,1.6
-4.96760e+00,-2.8,1.2
-4.96750e+00,-2.8,1.2
-4.96740e+00,-2.84,1.4
-4.96730e+00,-2.8,1.6
-4.96720e+00,-2.76,1.4
-4.96710e+00,-2.8,1
-4.96700e+00,-2.76,1.2
-4.96690e+00,-2.76,1.4
-4.96680e+00,-2.76,1.4
-4.96670e+00,-2.76,1.4
-4.96660e+00,-2.76,1
-4.96650e+00,-2.8,1.2
-4.96640e+00,-2.76,1
-4.96630e+00,-2.8,1.6
-4.96620e+00,-2.84,1.4
-4.96610e+00,-2.8,1.4
-4.96600e+00,-2.8,1.4
-4.96590e+00,-2.8,1.4
-4.96580e+00,-2.76,1.4
-4.96570e+00,-2.76,1.6
-4.96560e+00,-2.72,1.2
-4.96550e+00,-2.8,1.6
-4.96540e+00,-2.84,1.2
-4.96530e+00,-2.76,1.4
-4.96520e+00,-2.76,1
-4.96510e+00,-2.76,1.6
-4.96500e+00,-2.76,1.4
-4.96490e+00,-2.8,1.4
-4.96480e+00,-2.8,1.4
-4.96470e+00,-2.8,1.8
-4.96460e+00,-2.8,1.2
-4.96450e+00,-2.8,1.4
-4.96440e+00,-2.84,1.2
-4.96430e+00,-2.76,0.8
-4.96420e+00,-2.84,1.4
-4.96410e+00,-2.8,1.6
-4.96400e+00,-2.8,1.4
-4.96390e+00,-2.8,1.4
-4.96380e+00,-2.68,1.4
-4.96370e+00,-2.72,1.4
-4.96360e+00,-2.84,1.4
-4.96350e+00,-2.76,1.4
-4.96340e+00,-2.76,1.2
-4.96330e+00,-2.76,1
-4.96320e+00,-2.8,1.4
-4.96310e+00,-2.76,1.4
-4.96300e+00,-2.76,1.6
-4.96290e+00,-2.72,1.2
-4.96280e+00,-2.76,1
-4.96270e+00,-2.84,1.4
-4.96260e+00,-2.84,1.4
-4.96250e+00,-2.16,1
-4.96240e+00,-2.84,1.2
-4.96230e+00,-2.68,1.2
-4.96220e+00,-2.8,1.2
-4.96210e+00,-2.8,1.4
-4.96200e+00,-2.76,1.4
-4.96190e+00,-2.8,1.4
-4.96180e+00,-2.8,1
-4.96170e+00,-2.76,1.6
-4.96160e+00,-2.8,1.6
-4.96150e+00,-2.8,1
-4.96140e+00,-2.84,1.4
-4.96130e+00,-2.76,1.6
-4.96120e+00,-2.8,1.2
-4.96110e+00,-2.84,1.4
-4.96100e+00,-2.8,1.4
-4.96090e+00,-2.8,1.2
-4.96080e+00,-2.8,1.6
-4.96070e+00,-2.76,0.8
-4.96060e+00,-2.8,1.4
-4.96050e+00,-2.76,1
-4.96040e+00,-2.84,0.8
-4.96030e+00,-2.84,1.4
-4.96020e+00,-2.8,1
-4.96010e+00,-2.76,1.2
-4.96000e+00,-2.8,1.4
-4.95990e+00,-2.8,1.6
-4.95980e+00,-2.84,0.8
-4.95970e+00,-2.76,1.2
-4.95960e+00,-2.8,1.4
-4.95950e+00,-2.76,1.2
-4.95940e+00,-2.84,1
-4.95930e+00,-2.8,1.4
-4.95920e+00,-2.76,1.4
-4.95910e+00,-2.84,1
-4.95900e+00,-2.8,1.2
-4.95890e+00,-2.72,1.4
-4.95880e+00,-2.8,1
-4.95870e+00,-2.76,1.4
-4.95860e+00,-2.76,1.4
-4.95850e+00,-2.76,1.6
-4.95840e+00,-2.8,1.6
-4.95830e+00,-2.76,1.4
-4.95820e+00,-2.8,1.2
-4.95810e+00,-2.8,1.4
-4.95800e+00,-2.8,1
-4.95790e+00,-2.8,1.2
-4.95780e+00,-2.84,1.4
-4.95770e+00,-2.8,1.4
-4.95760e+00,-2.76,1.2
-4.95750e+00,-2.8,1.4
-4.95740e+00,-2.8,1.4
-4.95730e+00,-2.8,1
-4.95720e+00,-2.84,1.2
-4.95710e+00,-2.8,1
-4.95700e+00,-2.8,1.6
-4.95690e+00,-2.84,1
-4.95680e+00,-2.8,1.4
-4.95670e+00,-2.76,1.6
-4.95660e+00,-2.8,1.6
-4.95650e+00,-2.76,1
-4.95640e+00,-2.8,1
-4.95630e+00,-2.8,1.2
-4.95620e+00,-2.76,1.4
-4.95610e+00,-2.8,1.4
-4.95600e+00,-2.8,1.4
-4.95590e+00,-2.8,1.4
-4.95580e+00,-2.8,1
-4.95570e+00,-2.88,1.6
-4.95560e+00,-2.76,1.4
-4.95550e+00,-2.84,1.4
-4.95540e+00,-2.8,1.4
-4.95530e+00,-2.8,1
-4.95520e+00,-2.76,1.6
-4.95510e+00,-2.84,1.2
-4.95500e+00,-2.8,1.2
-4.95490e+00,-2.8,1
-4.95480e+00,-2.8,1.4
-4.95470e+00,-2.8,1.2
-4.95460e+00,-2.8,1.4
-4.95450e+00,-2.8,1.4
-4.95440e+00,-2.72,1.2
-4.95430e+00,-2.84,1.4
-4.95420e+00,-2.8,1.4
-4.95410e+00,-2.84,1.2
-4.95400e+00,-2.8,1.2
-4.95390e+00,-2.72,1.2
-4.95380e+00,-2.8,1.6
-4.95370e+00,-2.84,1.2
-4.95360e+00,-2.76,1
-4.95350e+00,-2.8,1.4
-4.95340e+00,-2.68,1
-4.95330e+00,-2.8,1.4
-4.95320e+00,-2.76,1.4
-4.95310e+00,-2.8,0.8
-4.95300e+00,-2.84,1.2
-4.95290e+00,-2.8,1
-4.95280e+00,-2.8,1.2
-4.95270e+00,-2.84,1.4
-4.95260e+00,-2.8,1.4
-4.95250e+00,-2.8,1.8
-4.95240e+00,-2.8,1.4
-4.95230e+00,-2.8,1.4
-4.95220e+00,-2.76,1.6
-4.95210e+00,-2.76,1.6
-4.95200e+00,-2.76,1
-4.95190e+00,-2.8,1
-4.95180e+00,-2.8,1.2
-4.95170e+00,-2.8,1.4
-4.95160e+00,-2.76,1.8
-4.95150e+00,-2.8,1.6
-4.95140e+00,-2.84,1.4
-4.95130e+00,-2.84,1.2
-4.95120e+00,-2.84,1.2
-4.95110e+00,-2.76,1.4
-4.95100e+00,-2.88,1.4
-4.95090e+00,-2.8,1.2
-4.95080e+00,-2.8,1.2
-4.95070e+00,-2.76,1.2
-4.95060e+00,-2.76,1.4
-4.95050e+00,-2.76,1.4
-4.95040e+00,-2.76,1.6
-4.95030e+00,-2.84,1.6
-4.95020e+00,-2.84,1.6
-4.95010e+00,-2.8,1.2
-4.95000e+00,-2.84,1.6
-4.94990e+00,-2.8,1.4
-4.94980e+00,-2.76,1.2
-4.94970e+00,-2.8,1.4
-4.94960e+00,-2.72,1
-4.94950e+00,-2.72,1.4
-4.94940e+00,-2.84,1.4
-4.94930e+00,-2.8,1.2
-4.94920e+00,-2.84,1.8
-4.94910e+00,-2.76,1.6
-4.94900e+00,-2.76,1.4
-4.94890e+00,-2.8,1.8
-4.94880e+00,-2.84,1.4
-4.94870e+00,-2.8,1.4
-4.94860e+00,-2.44,1.2
-4.94850e+00,-2.8,1.4
-4.94840e+00,-2.76,1.2
-4.94830e+00,-2.72,1.4
-4.94820e+00,-2.8,1.2
-4.94810e+00,-2.76,1.4
-4.94800e+00,-2.76,1.4
-4.94790e+00,-2.8,1.2
-4.94780e+00,-2.76,1.8
-4.94770e+00,-2.8,1.4
-4.94760e+00,-2.8,1.6
-4.94750e+00,-2.88,1.4
-4.94740e+00,-2.8,1.4
-4.94730e+00,-2.72,1.4
-4.94720e+00,-2.8,1.2
-4.94710e+00,-2.8,1.6
-4.94700e+00,-2.76,1
-4.94690e+00,-2.8,1.2
-4.94680e+00,-2.76,1
-4.94670e+00,-2.76,1
-4.94660e+00,-2.8,1.4
-4.94650e+00,-2.8,1.4
-4.94640e+00,-2.8,1.2
-4.94630e+00,-2.72,1.4
-4.94620e+00,-2.8,1.4
-4.94610e+00,-2.84,1.8
-4.94600e+00,-2.76,1.4
-4.94590e+00,-2.8,1.4
-4.94580e+00,-2.8,1.4
-4.94570e+00,-2.8,1.2
-4.94560e+00,-2.76,1.4
-4.94550e+00,-2.8,1.2
-4.94540e+00,-2.84,1.4
-4.94530e+00,-2.84,1.4
-4.94520e+00,-2.8,1.4
-4.94510e+00,-2.8,1.2
-4.94500e+00,-2.84,1.4
-4.94490e+00,-2.8,1.4
-4.94480e+00,-2.72,1
-4.94470e+00,-2.84,1.8
-4.94460e+00,-2.8,1.6
-4.94450e+00,-2.8,1.4
-4.94440e+00,-2.8,1.6
-4.94430e+00,-2.8,1.2
-4.94420e+00,-2.8,0.8
-4.94410e+00,-2.84,1.6
-4.94400e+00,-2.76,1.6
-4.94390e+00,-2.8,1
-4.94380e+00,-2.76,1
-4.94370e+00,-2.84,1.4
-4.94360e+00,-2.8,1.6
-4.94350e+00,-2.8,1.2
-4.94340e+00,-2.8,1.4
-4.94330e+00,-2.8,1
-4.94320e+00,-2.8,1.4
-4.94310e+00,-2.8,1.4
-4.94300e+00,-2.8,1.4
-4.94290e+00,-2.8,1.4
-4.94280e+00,-2.8,1.4
-4.94270e+00,-2.8,1.4
-4.94260e+00,-2.84,1.2
-4.94250e+00,-2.8,1.4
-4.94240e+00,-2.8,1.4
-4.94230e+00,-2.84,1.4
-4.94220e+00,-2.76,1.4
-4.94210e+00,-2.8,1.4
-4.94200e+00,-2.76,1.4
-4.94190e+00,-2.8,1.2
-4.94180e+00,-2.8,1.6
-4.94170e+00,-2.76,1.4
-4.94160e+00,-2.8,1.4
-4.94150e+00,-2.76,1.2
-4.94140e+00,-2.76,1.4
-4.94130e+00,-2.8,1.4
-4.94120e+00,-2.84,1.4
-4.94110e+00,-2.84,1.4
-4.94100e+00,-2.76,1.4
-4.94090e+00,-2.8,1.6
-4.94080e+00,-2.8,1.6
-4.94070e+00,-2.84,1.2
-4.94060e+00,-2.88,1.4
-4.94050e+00,-2.76,1.4
-4.94040e+00,-2.76,0.8
-4.94030e+00,-2.8,1.4
-4.94020e+00,-2.8,1.2
-4.94010e+00,-2.8,1.6
-4.94000e+00,-2.76,1.2
-4.93990e+00,-2.76,1.4
-4.93980e+00,-2.8,1.4
-4.93970e+00,-2.8,1.4
-4.93960e+00,-2.76,1.4
-4.93950e+00,-2.8,1.6
-4.93940e+00,-2.8,1.4
-4.93930e+00,-2.8,1.4
-4.93920e+00,-2.8,1.4
-4.93910e+00,-2.84,1.4
-4.93900e+00,-2.76,1.4
-4.93890e+00,-2.84,1.2
-4.93880e+00,-2.8,1.4
-4.93870e+00,-2.76,1.4
-4.93860e+00,-2.8,1.4
-4.93850e+00,-2.84,1
-4.93840e+00,-2.76,1.6
-4.93830e+00,-2.8,1.6
-4.93820e+00,-2.84,1.4
-4.93810e+00,-2.8,1.4
-4.93800e+00,-2.8,1.2
-4.93790e+00,-2.8,1.4
-4.93780e+00,-2.72,1.4
-4.93770e+00,-2.76,1.2
-4.93760e+00,-2.76,1.4
-4.93750e+00,-2.8,1.2
-4.93740e+00,-2.8,1.4
-4.93730e+00,-2.76,1.4
-4.93720e+00,-2.8,1.6
-4.93710e+00,-2.8,1.4
-4.93700e+00,-2.8,1.6
-4.93690e+00,-2.8,1.2
-4.93680e+00,-2.8,1.4
-4.93670e+00,-2.76,1.4
-4.93660e+00,-2.8,1.4
-4.93650e+00,-2.76,1.6
-4.93640e+00,-2.84,1.8
-4.93630e+00,-2.76,1
-4.93620e+00,-2.8,1.4
-4.93610e+00,-2.84,1.4
-4.93600e+00,-2.8,1.4
-4.93590e+00,-2.72,1.2
-4.93580e+00,-2.8,1.2
-4.93570e+00,-2.76,1.2
-4.93560e+00,-2.76,0.8
-4.93550e+00,-2.76,1.4
-4.93540e+00,-2.76,1.2
-4.93530e+00,-2.8,1.4
-4.93520e+00,-2.72,1.2
-4.93510e+00,-2.76,1.4
-4.93500e+00,-2.8,1.2
-4.93490e+00,-2.8,1.2
-4.93480e+00,-2.84,1.2
-4.93470e+00,-2.8,1.4
-4.93460e+00,-2.84,1.6
-4.93450e+00,-2.76,1.6
-4.93440e+00,-2.76,1.6
-4.93430e+00,-2.8,1.2
-4.93420e+00,-2.76,1.4
-4.93410e+00,-2.84,1
-4.93400e+00,-2.84,1.2
-4.93390e+00,-2.76,1.6
-4.93380e+00,-2.76,1.2
-4.93370e+00,-2.8,1.4
-4.93360e+00,-2.8,1.4
-4.93350e+00,-2.84,1.4
-4.93340e+00,-2.8,1.6
-4.93330e+00,-2.84,1.6
-4.93320e+00,-2.8,1.2
-4.93310e+00,-2.8,1.4
-4.93300e+00,-2.8,1.2
-4.93290e+00,-2.84,1.4
-4.93280e+00,-2.76,1.4
-4.93270e+00,-2.8,1.4
-4.93260e+00,-2.76,1.4
-4.93250e+00,-2.76,0.8
-4.93240e+00,-2.76,1.2
-4.93230e+00,-2.84,1.2
-4.93220e+00,-2.76,1.2
-4.93210e+00,-2.8,1.6
-4.93200e+00,-2.76,1.4
-4.93190e+00,-2.84,1.6
-4.93180e+00,-2.88,1.4
-4.93170e+00,-2.76,1.4
-4.93160e+00,-2.76,1.6
-4.93150e+00,-2.72,1.8
-4.93140e+00,-2.76,1.2
-4.93130e+00,-2.72,1.4
-4.93120e+00,-2.76,1.2
-4.93110e+00,-2.76,1.6
-4.93100e+00,-2.76,1.2
-4.93090e+00,-2.84,1.4
-4.93080e+00,-2.76,1.4
-4.93070e+00,-2.8,1.2
-4.93060e+00,-2.84,1.4
-4.93050e+00,-2.8,1.4
-4.93040e+00,-2.8,1.4
-4.93030e+00,-2.76,1.6
-4.93020e+00,-2.8,1.2
-4.93010e+00,-2.8,0.8
-4.93000e+00,-2.84,1.6
-4.92990e+00,-2.84,1
-4.92980e+00,-2.8,1.4
-4.92970e+00,-2.8,1.6
-4.92960e+00,-2.76,1.6
-4.92950e+00,-2.8,1.6
-4.92940e+00,-2.8,1.4
-4.92930e+00,-2.8,1.4
-4.92920e+00,-2.8,1.2
-4.92910e+00,-2.8,1.6
-4.92900e+00,-2.8,1.2
-4.92890e+00,-2.8,1.6
-4.92880e+00,-2.8,1.4
-4.92870e+00,-2.8,1.6
-4.92860e+00,-2.84,1.4
-4.92850e+00,-2.76,1.4
-4.92840e+00,-2.76,1.6
-4.92830e+00,-2.76,1.6
-4.92820e+00,-2.8,1.2
-4.92810e+00,-2.8,1.6
-4.92800e+00,-2.84,1.4
-4.92790e+00,-2.88,1.6
-4.92780e+00,-2.76,1.6
-4.92770e+00,-2.8,1.2
-4.92760e+00,-2.8,1.2
-4.92750e+00,-2.88,1.4
-4.92740e+00,-2.8,1.4
-4.92730e+00,-2.8,1.4
-4.92720e+00,-2.76,1.4
-4.92710e+00,-2.76,1.4
-4.92700e+00,-2.8,1.6
-4.92690e+00,-2.84,1.8
-4.92680e+00,-2.76,1.4
-4.92670e+00,-2.84,1.4
-4.92660e+00,-2.76,1.2
-4.92650e+00,-2.8,1.2
-4.92640e+00,-2.88,1.6
-4.92630e+00,-2.8,1.4
-4.92620e+00,-2.84,1.2
-4.92610e+00,-2.8,1.4
-4.92600e+00,-2.76,1.2
-4.92590e+00,-2.84,1
-4.92580e+00,-2.88,1.2
-4.92570e+00,-2.76,1
-4.92560e+00,-2.76,1.4
-4.92550e+00,-2.8,1
-4.92540e+00,-2.8,1.6
-4.92530e+00,-2.72,1.6
-4.92520e+00,-2.76,1.6
-4.92510e+00,-2.84,1.2
-4.92500e+00,-2.84,1.4
-4.92490e+00,-2.8,1.4
-4.92480e+00,-2.76,1
-4.92470e+00,-2.8,1.2
-4.92460e+00,-2.76,1.2
-4.92450e+00,-2.8,1.2
-4.92440e+00,-2.76,1.2
-4.92430e+00,-2.84,1.2
-4.92420e+00,-2.8,1
-4.92410e+00,-2.88,1.4
-4.92400e+00,-2.8,1.6
-4.92390e+00,-2.76,1.4
-4.92380e+00,-2.8,1.4
-4.92370e+00,-2.76,1.6
-4.92360e+00,-2.8,1.2
-4.92350e+00,-2.8,1.6
-4.92340e+00,-2.84,1.2
-4.92330e+00,-2.8,1.2
-4.92320e+00,-2.8,1.4
-4.92310e+00,-2.84,1.4
-4.92300e+00,-2.88,1.4
-4.92290e+00,-2.76,1.4
-4.92280e+00,-2.8,1.4
-4.92270e+00,-2.8,1.6
-4.92260e+00,-2.72,1.2
-4.92250e+00,-2.8,1
-4.92240e+00,-2.8,1
-4.92230e+00,-2.76,1.2
-4.92220e+00,-2.76,1.4
-4.92210e+00,-2.8,1.4
-4.92200e+00,-2.8,1.4
-4.92190e+00,-2.8,1.2
-4.92180e+00,-2.76,1.4
-4.92170e+00,-2.8,1.2
-4.92160e+00,-2.8,1.4
-4.92150e+00,-2.8,1.2
-4.92140e+00,-2.8,1.6
-4.92130e+00,-2.76,1.2
-4.92120e+00,-2.76,1.2
-4.92110e+00,-2.84,1.4
-4.92100e+00,-2.8,1.4
-4.92090e+00,-2.8,1.4
-4.92080e+00,-2.8,1.4
-4.92070e+00,-2.8,1.2
-4.92060e+00,-2.8,1.2
-4.92050e+00,-2.76,1.2
-4.92040e+00,-2.84,1.4
-4.92030e+00,-2.8,1.4
-4.92020e+00,-2.84,1.2
-4.92010e+00,-2.84,1.4
-4.92000e+00,-2.8,1.2
-4.91990e+00,-2.76,1.6
-4.91980e+00,-2.8,1.2
-4.91970e+00,-2.76,1.4
-4.91960e+00,-2.72,1.4
-4.91950e+00,-2.72,1.2
-4.91940e+00,-2.8,1.4
-4.91930e+00,-2.84,1.2
-4.91920e+00,-2.76,1.2
-4.91910e+00,-2.84,1.2
-4.91900e+00,-2.84,1.4
-4.91890e+00,-2.8,0.6
-4.91880e+00,-2.8,1
-4.91870e+00,-2.8,1.2
-4.91860e+00,-2.72,1.2
-4.91850e+00,-2.8,1.2
-4.91840e+00,-2.8,1.2
-4.91830e+00,-2.8,1
-4.91820e+00,-2.88,1.2
-4.91810e+00,-2.8,1.2
-4.91800e+00,-2.8,1.4
-4.91790e+00,-2.8,1.2
-4.91780e+00,-2.8,1.2
-4.91770e+00,-2.84,1.4
-4.91760e+00,-2.8,1.2
-4.91750e+00,-2.84,0.8
-4.91740e+00,-2.8,1.2
-4.91730e+00,-2.8,1.4
-4.91720e+00,-2.8,1.4
-4.91710e+00,-2.8,1.4
-4.91700e+00,-2.8,1.4
-4.91690e+00,-2.8,1.4
-4.91680e+00,-2.88,1.2
-4.91670e+00,-2.92,1.2
-4.91660e+00,-2.8,1.2
-4.91650e+00,-2.84,1.2
-4.91640e+00,-2.76,1.2
-4.91630e+00,-2.84,1.2
-4.91620e+00,-2.84,1.2
-4.91610e+00,-2.76,1.2
-4.91600e+00,-2.88,1
-4.91590e+00,-2.76,1.2
-4.91580e+00,-2.8,1.6
-4.91570e+00,-2.84,1.2
-4.91560e+00,-2.84,1
-4.91550e+00,-2.76,1.4
-4.91540e+00,-2.8,1.2
-4.91530e+00,-2.84,1.4
-4.91520e+00,-2.8,1
-4.91510e+00,-2.76,1.4
-4.91500e+00,-2.84,1.2
-4.91490e+00,-2.8,1.4
-4.91480e+00,-2.84,1.6
-4.91470e+00,-2.8,1.4
-4.91460e+00,-1.76,0.8
-4.91450e+00,-2.76,1.4
-4.91440e+00,-2.8,1.4
-4.91430e+00,-2.76,1.4
-4.91420e+00,-2.76,1.4
-4.91410e+00,-2.8,1
-4.91400e+00,-2.8,0.8
-4.91390e+00,-2.76,1.2
-4.91380e+00,-2.76,1.2
-4.91370e+00,-2.76,1.4
-4.91360e+00,-2.76,1.4
-4.91350e+00,-2.8,1.2
-4.91340e+00,-2.8,1.6
-4.91330e+00,-2.8,1.6
-4.91320e+00,-2.8,1.4
-4.91310e+00,-2.76,1.2
-4.91300e+00,-2.76,1.4
-4.91290e+00,-2.72,1
-4.91280e+00,-2.56,1.2
-4.91270e+00,-2.8,1
-4.91260e+00,-2.8,1.4
-4.91250e+00,-2.8,1.4
-4.91240e+00,-2.88,1.4
-4.91230e+00,-2.8,1.4
-4.91220e+00,-2.8,1.4
