PhotoDiode_Data/SILVER/DS0001.CSV

Memory Length,4000,
Trigger Level,-2.480E-01,
Source,CH2,
Probe,1X,
Vertical Units,V,
Vertical Scale,5.000E-02,
Vertical Position,1.480E-01,
Horizontal Units,s,
Horizontal Scale,2.500E-01,
Horizontal Position,0.000E+00,
Horizontal Mode,Roll Mode,
Sampling Period,1.000E-03,
Firmware, V1.26,
Time, ,
Mode,Fast,
Waveform Data,
-141,
-134,
-137,
-134,
-132,
-142,
-141,
-145,
-155,
-146,
-144,
-144,
-134,
-136,
-135,
-137,
-148,
-149,
-149,
-154,
-142,
-139,
-142,
-131,
-135,
-141,
-140,
-150,
-151,
-147,
-149,
-141,
-137,
-139,
-134,
-137,
-150,
-148,
-152,
-153,
-141,
-142,
-137,
-132,
-138,
-139,
-142,
-152,
-148,
-147,
-150,
-138,
-137,
-137,
-141,
-141,
-145,
-146,
-155,
-147,
-143,
-145,
-136,
-132,
-142,
-138,
-146,
-151,
-149,
-152,
-148,
-138,
-141,
-134,
-132,
-145,
-143,
-148,
-155,
-147,
-143,
-144,
-133,
-137,
-136,
-136,
-149,
-148,
-150,
-154,
-145,
-140,
-141,
-131,
-136,
-142,
-141,
-152,
-151,
-148,
-150,
-141,
-133,
-139,
-133,
-138,
-149,
-145,
-152,
-152,
-142,
-144,
-131,
-131,
-139,
-139,
-142,
-154,
-148,
-147,
-149,
-139,
-136,
-138,
-132,
-140,
-144,
-147,
-154,
-148,
-144,
-148,
-136,
-135,
-139,
-137,
-146,
-151,
-148,
-154,
-144,
-139,
-142,
-133,
-135,
-144,
-144,
-149,
-154,
-145,
-146,
-143,
-136,
-136,
-134,
-137,
-149,
-148,
-148,
-154,
-140,
-139,
-141,
-130,
-139,
-142,
-150,
-150,
-150,
-147,
-151,
-139,
-136,
-140,
-133,
-139,
-151,
-146,
-152,
-152,
-142,
-143,
-139,
-135,
-139,
-137,
-144,
-155,
-146,
-149,
-152,
-138,
-137,
-138,
-131,
-143,
-146,
-146,
-155,
-149,
-141,
-146,
-137,
-131,
-139,
-136,
-145,
-152,
-149,
-150,
-147,
-137,
-142,
-136,
-132,
-144,
-142,
-148,
-155,
-145,
-145,
-145,
-134,
-138,
-137,
-138,
-148,
-145,
-150,
-155,
-144,
-140,
-141,
-131,
-138,
-143,
-142,
-152,
-151,
-147,
-147,
-139,
-135,
-140,
-132,
-139,
-151,
-148,
-155,
-151,
-145,
-145,
-139,
-134,
-141,
-138,
-145,
-155,
-149,
-148,
-148,
-138,
-139,
-136,
-132,
-142,
-146,
-147,
-154,
-149,
-145,
-146,
-134,
-140,
-140,
-138,
-148,
-152,
-148,
-154,
-146,
-140,
-144,
-136,
-137,
-146,
-142,
-149,
-155,
-147,
-147,
-143,
-135,
-138,
-134,
-138,
-149,
-148,
-149,
-155,
-143,
-141,
-140,
-132,
-137,
-143,
-142,
-154,
-151,
-147,
-151,
-141,
-135,
-139,
-134,
-138,
-149,
-146,
-153,
-153,
-142,
-146,
-137,
-135,
-140,
-139,
-144,
-148,
-148,
-149,
-149,
-136,
-140,
-134,
-131,
-142,
-147,
-148,
-154,
-147,
-144,
-145,
-136,
-135,
-139,
-137,
-146,
-152,
-149,
-151,
-146,
-137,
-142,
-135,
-136,
-146,
-145,
-150,
-155,
-146,
-145,
-142,
-134,
-140,
-136,
-137,
-148,
-149,
-149,
-153,
-141,
-142,
-140,
-130,
-135,
-140,
-143,
-152,
-149,
-148,
-147,
-137,
-136,
-133,
-133,
-141,
-149,
-145,
-154,
-150,
-143,
-142,
-136,
-133,
-142,
-139,
-143,
-155,
-148,
-150,
-147,
-136,
-138,
-136,
-132,
-140,
-143,
-148,
-154,
-148,
-143,
-143,
-135,
-136,
-137,
-138,
-148,
-150,
-147,
-151,
-144,
-137,
-140,
-134,
-133,
-145,
-141,
-150,
-153,
-148,
-148,
-140,
-134,
-140,
-133,
-139,
-152,
-148,
-148,
-152,
-142,
-140,
-137,
-129,
-136,
-139,
-141,
-153,
-151,
-146,
-149,
-136,
-136,
-139,
-133,
-142,
-146,
-147,
-153,
-150,
-142,
-145,
-137,
-133,
-141,
-138,
-145,
-154,
-149,
-148,
-146,
-137,
-139,
-136,
-133,
-143,
-143,
-148,
-154,
-146,
-144,
-144,
-135,
-135,
-140,
-134,
-146,
-150,
-149,
-151,
-145,
-140,
-140,
-133,
-146,
-146,
-143,
-151,
-155,
-144,
-145,
-143,
-133,
-137,
-134,
-138,
-149,
-147,
-150,
-154,
-140,
-140,
-140,
-132,
-136,
-141,
-141,
-151,
-150,
-147,
-150,
-140,
-135,
-138,
-134,
-141,
-149,
-147,
-153,
-150,
-140,
-144,
-138,
-130,
-142,
-140,
-145,
-154,
-146,
-151,
-148,
-137,
-139,
-135,
-133,
-142,
-145,
-145,
-156,
-143,
-143,
-145,
-132,
-133,
-139,
-136,
-146,
-151,
-148,
-154,
-146,
-137,
-140,
-132,
-134,
-146,
-143,
-150,
-154,
-147,
-147,
-142,
-135,
-140,
-135,
-137,
-151,
-148,
-150,
-152,
-142,
-142,
-138,
-132,
-137,
-141,
-142,
-154,
-151,
-147,
-149,
-139,
-135,
-138,
-134,
-141,
-148,
-148,
-154,
-151,
-140,
-145,
-135,
-134,
-142,
-143,
-143,
-154,
-149,
-151,
-146,
-137,
-141,
-137,
-135,
-144,
-145,
-148,
-156,
-147,
-144,
-146,
-133,
-134,
-139,
-137,
-148,
-152,
-149,
-154,
-145,
-139,
-142,
-132,
-137,
-146,
-144,
-151,
-152,
-147,
-146,
-141,
-133,
-140,
-136,
-137,
-150,
-148,
-151,
-154,
-140,
-142,
-140,
-133,
-138,
-143,
-143,
-151,
-151,
-147,
-147,
-138,
-137,
-139,
-135,
-142,
-150,
-147,
-154,
-152,
-141,
-142,
-136,
-132,
-140,
-141,
-145,
-154,
-150,
-149,
-148,
-139,
-141,
-137,
-135,
-145,
-147,
-146,
-156,
-148,
-144,
-145,
-134,
-135,
-138,
-137,
-147,
-150,
-147,
-152,
-143,
-138,
-143,
-133,
-135,
-145,
-143,
-151,
-154,
-146,
-148,
-143,
-133,
-138,
-138,
-138,
-152,
-148,
-150,
-155,
-142,
-140,
-140,
-131,
-139,
-142,
-144,
-153,
-149,
-146,
-150,
-136,
-137,
-139,
-134,
-142,
-147,
-147,
-152,
-151,
-141,
-146,
-136,
-133,
-142,
-141,
-145,
-155,
-148,
-150,
-149,
-139,
-139,
-135,
-133,
-144,
-147,
-149,
-157,
-146,
-143,
-144,
-132,
-135,
-138,
-135,
-148,
-149,
-153,
-153,
-143,
-139,
-141,
-133,
-135,
-146,
-143,
-150,
-154,
-146,
-147,
-140,
-134,
-139,
-136,
-140,
-151,
-149,
-150,
-154,
-142,
-142,
-139,
-131,
-140,
-142,
-145,
-155,
-149,
-148,
-149,
-136,
-136,
-138,
-133,
-140,
-148,
-147,
-154,
-150,
-143,
-141,
-136,
-132,
-141,
-138,
-146,
-154,
-149,
-151,
-148,
-135,
-138,
-137,
-146,
-146,
-145,
-146,
-155,
-146,
-146,
-145,
-133,
-136,
-140,
-136,
-147,
-149,
-147,
-153,
-142,
-137,
-138,
-131,
-135,
-144,
-144,
-150,
-155,
-147,
-144,
-140,
-134,
-136,
-135,
-139,
-152,
-148,
-152,
-154,
-141,
-140,
-138,
-131,
-138,
-142,
-143,
-153,
-151,
-146,
-148,
-137,
-136,
-136,
-132,
-142,
-149,
-145,
-152,
-148,
-141,
-142,
-134,
-132,
-137,
-137,
-146,
-152,
-148,
-151,
-148,
-137,
-138,
-136,
-133,
-146,
-145,
-147,
-157,
-148,
-145,
-145,
-132,
-136,
-138,
-138,
-149,
-151,
-147,
-153,
-143,
-138,
-142,
-133,
-136,
-144,
-142,
-150,
-153,
-145,
-147,
-141,
-131,
-138,
-135,
-141,
-149,
-146,
-148,
-151,
-141,
-141,
-136,
-131,
-139,
-140,
-144,
-154,
-148,
-148,
-150,
-138,
-134,
-138,
-133,
-141,
-147,
-148,
-154,
-149,
-141,
-142,
-132,
-134,
-142,
-138,
-146,
-152,
-148,
-151,
-145,
-137,
-138,
-135,
-135,
-147,
-144,
-148,
-157,
-146,
-145,
-143,
-134,
-136,
-139,
-139,
-146,
-150,
-148,
-153,
-143,
-138,
-139,
-131,
-134,
-143,
-143,
-151,
-152,
-146,
-147,
-139,
-133,
-137,
-137,
-138,
-151,
-149,
-150,
-153,
-141,
-140,
-140,
-133,
-138,
-141,
-146,
-155,
-149,
-145,
-148,
-138,
-136,
-139,
-134,
-141,
-148,
-147,
-152,
-150,
-141,
-143,
-135,
-133,
-142,
-139,
-147,
-157,
-150,
-150,
-147,
-138,
-138,
-135,
-135,
-146,
-147,
-147,
-156,
-148,
-143,
-144,
-134,
-137,
-140,
-140,
-149,
-152,
-153,
-153,
-145,
-137,
-140,
-133,
-137,
-147,
-142,
-151,
-153,
-147,
-146,
-140,
-134,
-138,
-136,
-138,
-154,
-146,
-151,
-154,
-140,
-141,
-142,
-132,
-140,
-141,
-147,
-154,
-152,
-147,
-149,
-137,
-136,
-138,
-135,
-141,
-150,
-147,
-152,
-147,
-142,
-145,
-135,
-133,
-143,
-140,
-147,
-154,
-147,
-150,
-149,
-134,
-137,
-136,
-135,
-143,
-146,
-148,
-156,
-145,
-142,
-143,
-134,
-137,
-139,
-141,
-149,
-151,
-146,
-151,
-142,
-139,
-139,
-132,
-137,
-146,
-143,
-151,
-154,
-146,
-147,
-139,
-139,
-139,
-137,
-140,
-152,
-147,
-150,
-153,
-141,
-140,
-138,
-132,
-140,
-142,
-146,
-154,
-151,
-147,
-148,
-139,
-134,
-138,
-134,
-143,
-151,
-147,
-152,
-150,
-141,
-144,
-132,
-133,
-140,
-138,
-147,
-153,
-146,
-151,
-145,
-134,
-138,
-135,
-136,
-144,
-145,
-148,
-155,
-146,
-144,
-144,
-133,
-135,
-140,
-137,
-150,
-150,
-148,
-154,
-143,
-138,
-141,
-132,
-139,
-145,
-144,
-149,
-154,
-146,
-145,
-141,
-132,
-137,
-137,
-141,
-151,
-150,
-150,
-151,
-141,
-138,
-139,
-131,
-140,
-143,
-145,
-151,
-150,
-147,
-149,
-136,
-135,
-140,
-135,
-142,
-152,
-147,
-151,
-152,
-140,
-142,
-134,
-133,
-141,
-140,
-141,
-155,
-148,
-149,
-146,
-138,
-138,
-136,
-133,
-146,
-147,
-148,
-154,
-149,
-141,
-146,
-134,
-134,
-140,
-138,
-148,
-152,
-149,
-154,
-142,
-136,
-141,
-131,
-137,
-148,
-143,
-151,
-153,
-146,
-142,
-141,
-133,
-137,
-134,
-140,
-152,
-148,
-149,
-154,
-140,
-140,
-138,
-133,
-138,
-142,
-142,
-154,
-148,
-148,
-147,
-137,
-136,
-137,
-135,
-143,
-151,
-149,
-154,
-141,
-141,
-144,
-134,
-133,
-141,
-141,
-146,
-154,
-148,
-148,
-145,
-136,
-137,
-136,
-136,
-146,
-147,
-149,
-156,
-145,
-142,
-144,
-131,
-134,
-141,
-140,
-150,
-151,
-148,
-153,
-142,
-140,
-141,
-133,
-136,
-147,
-142,
-150,
-152,
-146,
-147,
-140,
-132,
-138,
-138,
-138,
-154,
-147,
-149,
-154,
-141,
-140,
-137,
-130,
-141,
-146,
-146,
-152,
-152,
-148,
-150,
-137,
-137,
-140,
-133,
-143,
-152,
-148,
-153,
-152,
-141,
-143,
-135,
-133,
-145,
-141,
-147,
-156,
-149,
-149,
-146,
-137,
-137,
-135,
-135,
-146,
-148,
-150,
-157,
-147,
-141,
-145,
-134,
-138,
-141,
-139,
-150,
-153,
-150,
-152,
-142,
-137,
-140,
-133,
-137,
-148,
-146,
-152,
-156,
-147,
-144,
-140,
-138,
-138,
-136,
-139,
-152,
-149,
-148,
-154,
-139,
-140,
-140,
-132,
-138,
-146,
-146,
-154,
-151,
-146,
-147,
-138,
-133,
-141,
-136,
-144,
-151,
-146,
-152,
-150,
-140,
-141,
-136,
-132,
-141,
-140,
-147,
-154,
-148,
-149,
-146,
-135,
-138,
-135,
-136,
-144,
-147,
-149,
-153,
-148,
-141,
-144,
-131,
-134,
-140,
-139,
-149,
-148,
-148,
-151,
-143,
-136,
-141,
-134,
-137,
-149,
-145,
-151,
-154,
-148,
-145,
-142,
-132,
-136,
-136,
-141,
-153,
-148,
-149,
-153,
-139,
-138,
-139,
-132,
-138,
-144,
-143,
-152,
-150,
-149,
-148,
-136,
-136,
-139,
-133,
-142,
-151,
-147,
-153,
-150,
-139,
-142,
-137,
-131,
-142,
-141,
-148,
-156,
-148,
-149,
-150,
-136,
-136,
-136,
-134,
-145,
-147,
-146,
-153,
-149,
-139,
-143,
-134,
-136,
-143,
-139,
-150,
-153,
-148,
-151,
-142,
-136,
-139,
-133,
-136,
-148,
-144,
-152,
-155,
-147,
-145,
-143,
-134,
-138,
-138,
-141,
-151,
-149,
-149,
-154,
-140,
-138,
-140,
-129,
-140,
-145,
-144,
-152,
-152,
-146,
-148,
-139,
-135,
-140,
-136,
-141,
-152,
-152,
-152,
-152,
-141,
-142,
-136,
-133,
-142,
-141,
-147,
-157,
-150,
-151,
-148,
-135,
-137,
-137,
-136,
-146,
-150,
-149,
-155,
-149,
-142,
-145,
-134,
-135,
-141,
-140,
-149,
-152,
-147,
-152,
-142,
-137,
-140,
-135,
-137,
-147,
-148,
-152,
-155,
-146,
-145,
-138,
-134,
-137,
-137,
-140,
-152,
-150,
-149,
-154,
-140,
-139,
-131,
-131,
-140,
-145,
-143,
-154,
-151,
-149,
-149,
-137,
-135,
-139,
-136,
-145,
-150,
-148,
-153,
-152,
-141,
-143,
-133,
-132,
-144,
-141,
-148,
-156,
-149,
-152,
-146,
-136,
-139,
-137,
-134,
-149,
-147,
-150,
-154,
-148,
-143,
-141,
-132,
-136,
-141,
-140,
-151,
-153,
-146,
-153,
-142,
-137,
-140,
-134,
-140,
-149,
-145,
-153,
-153,
-146,
-146,
-141,
-134,
-138,
-139,
-141,
-153,
-149,
-149,
-155,
-141,
-138,
-136,
-132,
-137,
-145,
-144,
-153,
-150,
-146,
-147,
-136,
-135,
-140,
-135,
-143,
-152,
-149,
-151,
-151,
-138,
-141,
-136,
-131,
-141,
-144,
-146,
-157,
-151,
-151,
-146,
-136,
-136,
-138,
-136,
-146,
-149,
-148,
-155,
-147,
-141,
-141,
-134,
-134,
-140,
-139,
-150,
-147,
-147,
-153,
-142,
-137,
-139,
-132,
-138,
-149,
-144,
-151,
-154,
-147,
-145,
-141,
-131,
-137,
-138,
-142,
-152,
-151,
-150,
-155,
-141,
-139,
-139,
-131,
-140,
-144,
-143,
-154,
-150,
-151,
-148,
-137,
-137,
-140,
-136,
-144,
-154,
-149,
-152,
-151,
-139,
-143,
-134,
-132,
-142,
-141,
-145,
-156,
-148,
-152,
-147,
-137,
-137,
-137,
-136,
-147,
-148,
-148,
-155,
-146,
-142,
-143,
-133,
-135,
-140,
-137,
-149,
-153,
-148,
-154,
-142,
-135,
-139,
-135,
-136,
-147,
-144,
-151,
-155,
-145,
-141,
-138,
-132,
-138,
-137,
-140,
-153,
-151,
-148,
-154,
-139,
-137,
-138,
-131,
-140,
-144,
-144,
-153,
-150,
-146,
-146,
-135,
-133,
-137,
-133,
-143,
-153,
-154,
-154,
-149,
-141,
-140,
-133,
-132,
-140,
-141,
-147,
-156,
-148,
-149,
-147,
-135,
-136,
-138,
-133,
-146,
-149,
-149,
-155,
-146,
-142,
-144,
-131,
-133,
-141,
-139,
-148,
-151,
-147,
-152,
-142,
-135,
-139,
-133,
-136,
-148,
-148,
-150,
-154,
-147,
-142,
-141,
-132,
-136,
-139,
-142,
-153,
-151,
-150,
-153,
-138,
-138,
-139,
-131,
-139,
-145,
-145,
-151,
-152,
-148,
-144,
-137,
-132,
-139,
-136,
-142,
-152,
-149,
-152,
-153,
-138,
-138,
-136,
-132,
-141,
-144,
-147,
-156,
-148,
-147,
-147,
-137,
-136,
-138,
-135,
-148,
-150,
-150,
-152,
-149,
-142,
-142,
-131,
-133,
-142,
-140,
-149,
-153,
-146,
-152,
-143,
-135,
-138,
-134,
-136,
-148,
-147,
-150,
-154,
-143,
-143,
-140,
-131,
-137,
-138,
-139,
-150,
-149,
-149,
-155,
-141,
-137,
-140,
-131,
-139,
-144,
-144,
-153,
-148,
-144,
-145,
-137,
-132,
-140,
-136,
-140,
-153,
-147,
-150,
-150,
-138,
-136,
-135,
-132,
-140,
-144,
-146,
-156,
-148,
-149,
-144,
-133,
-137,
-139,
-136,
-146,
-149,
-149,
-154,
-148,
-140,
-142,
-132,
-133,
-141,
-148,
-148,
-154,
-148,
-149,
-144,
-134,
-138,
-136,
-136,
-149,
-146,
-148,
-154,
-144,
-141,
-140,
-129,
-137,
-139,
-140,
-151,
-152,
-146,
-153,
-140,
-136,
-139,
-134,
-138,
-145,
-143,
-151,
-149,
-143,
-145,
-136,
-132,
-139,
-137,
-142,
-153,
-148,
-149,
-150,
-138,
-139,
-136,
-133,
-141,
-142,
-146,
-156,
-151,
-148,
-146,
-135,
-138,
-138,
-135,
-147,
-153,
-149,
-153,
-150,
-142,
-141,
-133,
-134,
-143,
-142,
-148,
-152,
-148,
-150,
-144,
-133,
-136,
-134,
-135,
-148,
-147,
-149,
-155,
-146,
-140,
-141,
-132,
-134,
-140,
-140,
-150,
-152,
-147,
-152,
-141,
-137,
-140,
-133,
-138,
-149,
-147,
-153,
-152,
-144,
-145,
-139,
-132,
-140,
-137,
-143,
-152,
-151,
-151,
-151,
-137,
-139,
-136,
-131,
-140,
-145,
-146,
-154,
-148,
-146,
-147,
-138,
-135,
-137,
-134,
-146,
-150,
-148,
-152,
-146,
-140,
-143,
-134,
-135,
-143,
-141,
-148,
-154,
-147,
-146,
-141,
-134,
-137,
-135,
-136,
-149,
-146,
-150,
-155,
-144,
-141,
-141,
-132,
-137,
-142,
-142,
-153,
-152,
-149,
-152,
-141,
-136,
-140,
-131,
-139,
-146,
-146,
-154,
-150,
-146,
-145,
-139,
-133,
-139,
-137,
-143,
-154,
-147,
-151,
-150,
-139,
-140,
-135,
-134,
-141,
-142,
-146,
-156,
-149,
-146,
-147,
-136,
-134,
-139,
-136,
-146,
-152,
-148,
-152,
-148,
-139,
-142,
-135,
-133,
-145,
-142,
-148,
-154,
-148,
-146,
-144,
-135,
-137,
-137,
-135,
-147,
-146,
-149,
-154,
-142,
-142,
-143,
-130,
-137,
-143,
-142,
-152,
-153,
-146,
-150,
-141,
-138,
-140,
-136,
-138,
-149,
-147,
-151,
-155,
-143,
-145,
-140,
-132,
-139,
-141,
-142,
-155,
-149,
-148,
-153,
-138,
-138,
-137,
-133,
-140,
-145,
-146,
-153,
-150,
-145,
-146,
-137,
-134,
-142,
-135,
-145,
-154,
-148,
-149,
-149,
-139,
-140,
-134,
-133,
-144,
-146,
-146,
-157,
-148,
-146,
-148,
-134,
-137,
-137,
-136,
-147,
-150,
-149,
-153,
-146,
-141,
-142,
-130,
-135,
-142,
-141,
-149,
-152,
-148,
-150,
-140,
-134,
-140,
-134,
-138,
-150,
-147,
-152,
-154,
-144,
-142,
-139,
-130,
-137,
-137,
-142,
-156,
-148,
-149,
-150,
-140,
-137,
-137,
-134,
-141,
-144,
-145,
-155,
-148,
-146,
-146,
-136,
-133,
-138,
-134,
-145,
-152,
-148,
-151,
-149,
-137,
-140,
-133,
-132,
-145,
-144,
-150,
-156,
-149,
-148,
-146,
-135,
-135,
-137,
-135,
-148,
-147,
-149,
-155,
-145,
-139,
-145,
-131,
-135,
-142,
-140,
-149,
-152,
-146,
-149,
-140,
-134,
-139,
-135,
-138,
-149,
-146,
-149,
-154,
-145,
-144,
-142,
-132,
-140,
-140,
-153,
-153,
-148,
-149,
-151,
-139,
-139,
-139,
-132,
-139,
-146,
-146,
-152,
-148,
-143,
-147,
-136,
-133,
-140,
-138,
-145,
-151,
-148,
-153,
-148,
-140,
-138,
-135,
-132,
-143,
-143,
-150,
-156,
-148,
-147,
-148,
-136,
-138,
-138,
-136,
-148,
-150,
-149,
-153,
-142,
-140,
-141,
-133,
-134,
-143,
-141,
-151,
-152,
-147,
-150,
-141,
-136,
-138,
-135,
-137,
-146,
-146,
-151,
-153,
-143,
-142,
-139,
-129,
-138,
-140,
-141,
-154,
-150,
-148,
-152,
-140,
-135,
-138,
-132,
-140,
-146,
-144,
-153,
-150,
-145,
-147,
-136,
-133,
-140,
-135,
-146,
-153,
-149,
-151,
-148,
-139,
-140,
-134,
-136,
-144,
-143,
-146,
-155,
-148,
-146,
-147,
-133,
-135,
-137,
-136,
-148,
-150,
-149,
-153,
-143,
-138,
-132,
-132,
-136,
-144,
-142,
-150,
-155,
-145,
-147,
-142,
-133,
-139,
-135,
-137,
-149,
-147,
-151,
-153,
-144,
-141,
-140,
-132,
-138,
-140,
-142,
-153,
-151,
-148,
-150,
-141,
-137,
-139,
-133,
-141,
-148,
-148,
-154,
-151,
-143,
-146,
-134,
-134,
-141,
-134,
-143,
-152,
-147,
-150,
-148,
-138,
-141,
-136,
-131,
-144,
-145,
-145,
-155,
-149,
-145,
-149,
-135,
-136,
-138,
-136,
-146,
-149,
-148,
-153,
-145,
-138,
-142,
-133,
-133,
-143,
-140,
-149,
-153,
-146,
-145,
-142,
-134,
-138,
-137,
-136,
-151,
-147,
-152,
-155,
-142,
-140,
-140,
-132,
-136,
-140,
-142,
-151,
-149,
-146,
-150,
-140,
-133,
-139,
-133,
-139,
-147,
-147,
-152,
-150,
-141,
-139,
-139,
-131,
-140,
-138,
-143,
-155,
-147,
-147,
-151,
-136,
-137,
-137,
-131,
-143,
-145,
-146,
-156,
-148,
-143,
-147,
-133,
-132,
-140,
-135,
-146,
-153,
-146,
-152,
-145,
-138,
-140,
-132,
-133,
-144,
-142,
-147,
-156,
-148,
-145,
-142,
-135,
-137,
-136,
-138,
-148,
-149,
-148,
-155,
-143,
-141,
-142,
-133,
-137,
-142,
-140,
-150,
-152,
-149,
-148,
-141,
-138,
-138,
-133,
-140,
-150,
-146,
-151,
-151,
-142,
-143,
-137,
-131,
-137,
-139,
-144,
-153,
-148,
-148,
-149,
-138,
-138,
-136,
-134,
-145,
-145,
-145,
-156,
-148,
-144,
-145,
-133,
-135,
-139,
-137,
-147,
-150,
-148,
-151,
-146,
-138,
-142,
-134,
-133,
-145,
-141,
-149,
-154,
-146,
-147,
-142,
-134,
-136,
-135,
-134,
-148,
-149,
-149,
-154,
-142,
-140,
-140,
-132,
-137,
-143,
-141,
-150,
-150,
-146,
-146,
-140,
-134,
-140,
-136,
-141,
-151,
-148,
-149,
-154,
-143,
-144,
-138,
-132,
-139,
-137,
-141,
-154,
-149,
-149,
-150,
-137,
-137,
-137,
-132,
-143,
-147,
-149,
-153,
-148,
-144,
-146,
-133,
-135,
-139,
-138,
-147,
-153,
-148,
-153,
-148,
-139,
-134,
-134,
-135,
-145,
-142,
-147,
-156,
-147,
-145,
-143,
-133,
-137,
-138,
-138,
-149,
-148,
-147,
-154,
-143,
-143,
-143,
-132,
-136,
-142,
-141,
-152,
-152,
-147,
-149,
-140,
-135,
-141,
-133,
-138,
-150,
-147,
-152,
-154,
-144,
-143,
-139,
-131,
-140,
-140,
-143,
-157,
-149,
-146,
-150,
-137,
-137,
-137,
-131,
-141,
-146,
-154,
-154,
-147,
-143,
-145,
-136,
-134,
-140,
-137,
-147,
-152,
-149,
-153,
-144,
-138,
-139,
-135,
-135,
-143,
-142,
-149,
-155,
-145,
-145,
-144,
-134,
-137,
-137,
-137,
-147,
-148,
-148,
-153,
-142,
-140,
-142,
-132,
-135,
-142,
-140,
-151,
-152,
-147,
-148,
-138,
-134,
-140,
-134,
-140,
-149,
-146,
-154,
-154,
-142,
-142,
-140,
-132,
-139,
-139,
-154,
-154,
-148,
-148,
-148,
-137,
-136,
-138,
-130,
-143,
-146,
-147,
-153,
-148,
-140,
-145,
-136,
-134,
-141,
-137,
-144,
-152,
-147,
-151,
-145,
-137,
-139,
-134,
-133,
-145,
-145,
-148,
-157,
-146,
-142,
-145,
-133,
-136,
-138,
-135,
-146,
-148,
-148,
-152,
-141,
-137,
-141,
-132,
-135,
-144,
-141,
-150,
-152,
-146,
-150,
-141,
-134,
-140,
-134,
-140,
-147,
-147,
-152,
-156,
-141,
-140,
-140,
-133,
-139,
-141,
-143,
-155,
-150,
-147,
-151,
-139,
-135,
-139,
-132,
-142,
-147,
-147,
-152,
-150,
-141,
-142,
-136,
-133,
-142,
-137,
-145,
-156,
-148,
-151,
-149,
-138,
-141,
-136,
-133,
-145,
-145,
-149,
-156,
-148,
-143,
-144,
-136,
-135,
-137,
-136,
-149,
-151,
-148,
-153,
-143,
-142,
-142,
-133,
-134,
-148,
-142,
-148,
-152,
-146,
-146,
-142,
-135,
-139,
-135,
-138,
-151,
-146,
-149,
-154,
-142,
-141,
-140,
-129,
-139,
-142,
-144,
-154,
-150,
-148,
-152,
-140,
-135,
-140,
-133,
-142,
-148,
-145,
-154,
-149,
-144,
-144,
-134,
-134,
-141,
-135,
-146,
-152,
-147,
-151,
-147,
-138,
-139,
-134,
-134,
-146,
-148,
-148,
-157,
-147,
-146,
-145,
-133,
-137,
-138,
-137,
-149,
-151,
-149,
-153,
-144,
-138,
-141,
-132,
-134,
-145,
-142,
-150,
-152,
-146,
-147,
-141,
-134,
-138,
-135,
-139,
-149,
-148,
-150,
-155,
-141,
-142,
-140,
-131,
-140,
-143,
-144,
-153,
-152,
-147,
-151,
-138,
-135,
-139,
-132,
-139,
-149,
-145,
-152,
-150,
-143,
-143,
-135,
-132,
-141,
-137,
-147,
-155,
-149,
-149,
-149,
-136,
-136,
-136,
-132,
-145,
-146,
-146,
-154,
-145,
-146,
-145,
-133,
-133,
-140,
-137,
-147,
-151,
-147,
-150,
-145,
-137,
-140,
-133,
-133,
-146,
-143,
-149,
-155,
-145,
-146,
-142,
-133,
-136,
-137,
-136,
-149,
-149,
-148,
-155,
-141,
-139,
-141,
-130,
-136,
-142,
-142,
-150,
-151,
-146,
-138,
-138,
-133,
-140,
-134,
-139,
-148,
-145,
-152,
-150,
-140,
-142,
-137,
-129,
-140,
-139,
-144,
-155,
-148,
-148,
-150,
-136,
-139,
-137,
-133,
-144,
-146,
-148,
-157,
-148,
-144,
-145,
-134,
-135,
-140,
-137,
-148,
-153,
-148,
-154,
-144,
-137,
-141,
-135,
-134,
-148,
-145,
-149,
-155,
-146,
-147,
-143,
-137,
-138,
-138,
-139,
-153,
-150,
-157,
-157,
-145,
-141,
-139,
-132,
-138,
-144,
-145,
-153,
-153,
-146,
