PhotoDiode_Data/SILVER/Test/A0000CH1.CSV

Memory Length,4000,
Trigger Level,-2.480E-01,
Source,CH1,
Probe,1X,
Vertical Units,V,
Vertical Scale,1.000E-02,
Vertical Position,1.032E-01,
Horizontal Units,s,
Horizontal Scale,2.500E-01,
Horizontal Position,0.000E+00,
Horizontal Mode,Roll Mode,
Sampling Period,1.000E-03,
Firmware, V1.26,
Time, ,
Mode,Fast,
Waveform Data,
-168,
-159,
-144,
-156,
-163,
-151,
-164,
-158,
-158,
-153,
-165,
-158,
-150,
-170,
-166,
-154,
-163,
-167,
-163,
-164,
-170,
-160,
-158,
-166,
-167,
-148,
-163,
-167,
-162,
-159,
-164,
-164,
-150,
-171,
-160,
-153,
-167,
-166,
-152,
-160,
-162,
-153,
-153,
-168,
-170,
-155,
-166,
-161,
-153,
-166,
-167,
-153,
-159,
-172,
-165,
-162,
-170,
-160,
-150,
-164,
-165,
-155,
-167,
-155,
-159,
-154,
-166,
-159,
-150,
-162,
-161,
-153,
-167,
-166,
-161,
-158,
-166,
-159,
-151,
-161,
-162,
-154,
-166,
-165,
-154,
-171,
-175,
-155,
-158,
-167,
-163,
-154,
-169,
-163,
-150,
-169,
-171,
-154,
-163,
-178,
-152,
-156,
-161,
-162,
-147,
-164,
-159,
-151,
-161,
-165,
-158,
-165,
-171,
-160,
-151,
-170,
-165,
-162,
-162,
-164,
-154,
-165,
-167,
-167,
-158,
-168,
-162,
-148,
-169,
-167,
-158,
-154,
-162,
-154,
-162,
-166,
-161,
-150,
-164,
-162,
-150,
-162,
-168,
-162,
-162,
-167,
-154,
-158,
-166,
-166,
-150,
-159,
-162,
-154,
-168,
-172,
-158,
-165,
-164,
-160,
-155,
-170,
-152,
-154,
-167,
-162,
-158,
-164,
-162,
-161,
-160,
-169,
-156,
-153,
-166,
-158,
-154,
-164,
-167,
-160,
-166,
-165,
-155,
-155,
-165,
-170,
-149,
-174,
-163,
-155,
-165,
-167,
-158,
-154,
-171,
-162,
-156,
-166,
-167,
-146,
-162,
-166,
-158,
-163,
-166,
-156,
-151,
-165,
-157,
-151,
-163,
-158,
-157,
-163,
-167,
-161,
-160,
-166,
-161,
-151,
-167,
-163,
-159,
-165,
-167,
-162,
-163,
-170,
-167,
-162,
-170,
-161,
-150,
-170,
-166,
-154,
-165,
-167,
-154,
-165,
-169,
-166,
-159,
-165,
-163,
-158,
-170,
-167,
-163,
-162,
-168,
-156,
-154,
-171,
-165,
-153,
-168,
-164,
-159,
-168,
-178,
-158,
-159,
-171,
-157,
-149,
-167,
-161,
-155,
-163,
-168,
-154,
-160,
-167,
-158,
-152,
-166,
-166,
-150,
-167,
-161,
-151,
-163,
-168,
-159,
-152,
-171,
-163,
-152,
-167,
-169,
-155,
-165,
-162,
-160,
-162,
-169,
-162,
-148,
-166,
-158,
-155,
-165,
-171,
-146,
-158,
-165,
-154,
-163,
-166,
-152,
-155,
-165,
-159,
-150,
-167,
-167,
-154,
-166,
-169,
-162,
-162,
-171,
-159,
-152,
-167,
-172,
-151,
-166,
-167,
-154,
-158,
-168,
-163,
-154,
-170,
-159,
-150,
-165,
-166,
-156,
-164,
-168,
-152,
-158,
-171,
-169,
-154,
-164,
-162,
-154,
-168,
-178,
-163,
-161,
-165,
-162,
-154,
-169,
-167,
-141,
-165,
-165,
-156,
-170,
-166,
-158,
-158,
-164,
-161,
-151,
-168,
-160,
-154,
-163,
-165,
-163,
-172,
-170,
-159,
-152,
-170,
-163,
-158,
-160,
-162,
-155,
-173,
-169,
-161,
-166,
-166,
-153,
-150,
-171,
-165,
-154,
-161,
-162,
-161,
-162,
-171,
-156,
-156,
-166,
-159,
-149,
-161,
-161,
-150,
-164,
-167,
-159,
-164,
-174,
-156,
-157,
-170,
-167,
-149,
-160,
-174,
-154,
-163,
-162,
-157,
-160,
-163,
-163,
-150,
-166,
-166,
-158,
-174,
-165,
-154,
-159,
-171,
-164,
-154,
-171,
-159,
-146,
-164,
-162,
-163,
-168,
-167,
-162,
-155,
-166,
-166,
-156,
-170,
-167,
-150,
-170,
-171,
-165,
-150,
-170,
-160,
-156,
-168,
-160,
-143,
-162,
-162,
-158,
-166,
-168,
-157,
-155,
-165,
-162,
-154,
-172,
-166,
-158,
-165,
-168,
-158,
-174,
-166,
-162,
-152,
-167,
-165,
-160,
-168,
-162,
-158,
-163,
-167,
-161,
-158,
-161,
-166,
-150,
-168,
-162,
-154,
-166,
-161,
-152,
-155,
-162,
-163,
-156,
-160,
-162,
-155,
-165,
-173,
-162,
-152,
-165,
-162,
-155,
-165,
-162,
-150,
-161,
-167,
-158,
-156,
-166,
-155,
-149,
-165,
-162,
-154,
-170,
-166,
-151,
-157,
-170,
-160,
-156,
-170,
-165,
-150,
-168,
-165,
-160,
-165,
-163,
-159,
-158,
-166,
-168,
-154,
-165,
-165,
-149,
-166,
-167,
-164,
-160,
-161,
-157,
-154,
-172,
-165,
-161,
-166,
-166,
-153,
-166,
-168,
-162,
-158,
-165,
-165,
-153,
-172,
-166,
-154,
-171,
-164,
-154,
-163,
-170,
-154,
-153,
-166,
-164,
-158,
-171,
-164,
-152,
-160,
-162,
-158,
-162,
-172,
-161,
-144,
-166,
-167,
-154,
-165,
-163,
-157,
-165,
-175,
-168,
-162,
-162,
-158,
-151,
-164,
-162,
-149,
-159,
-163,
-158,
-153,
-164,
-166,
-152,
-163,
-162,
-153,
-170,
-169,
-162,
-160,
-163,
-156,
-161,
-172,
-166,
-149,
-165,
-162,
-162,
-167,
-168,
-156,
-159,
-161,
-163,
-153,
-165,
-154,
-152,
-163,
-162,
-152,
-163,
-168,
-158,
-152,
-164,
-158,
-152,
-167,
-162,
-154,
-166,
-173,
-161,
-163,
-156,
-156,
-156,
-168,
-162,
-160,
-156,
-166,
-159,
-166,
-167,
-158,
-151,
-163,
-162,
-150,
-168,
-164,
-158,
-161,
-166,
-156,
-159,
-171,
-160,
-154,
-163,
-162,
-151,
-168,
-171,
-162,
-160,
-163,
-159,
-154,
-167,
-156,
-149,
-160,
-160,
-153,
-162,
-165,
-155,
-158,
-163,
-160,
-158,
-178,
-162,
-149,
-169,
-165,
-154,
-159,
-158,
-158,
-161,
-167,
-170,
-158,
-170,
-162,
-157,
-165,
-165,
-155,
-156,
-166,
-159,
-147,
-170,
-166,
-151,
-170,
-163,
-156,
-162,
-169,
-167,
-156,
-166,
-159,
-149,
-163,
-164,
-154,
-165,
-170,
-159,
-166,
-167,
-160,
-151,
-165,
-166,
-155,
-162,
-159,
-156,
-162,
-160,
-160,
-163,
-167,
-157,
-148,
-165,
-160,
-155,
-170,
-170,
-158,
-163,
-167,
-165,
-154,
-167,
-167,
-153,
-166,
-169,
-160,
-166,
-169,
-159,
-154,
-167,
-168,
-152,
-161,
-164,
-155,
-162,
-167,
-162,
-158,
-163,
-162,
-154,
-164,
-170,
-151,
-162,
-160,
-158,
-164,
-167,
-162,
-158,
-167,
-166,
-153,
-170,
-162,
-154,
-165,
-166,
-159,
-163,
-163,
-156,
-158,
-166,
-166,
-158,
-162,
-163,
-154,
-163,
-154,
-154,
-162,
-162,
-158,
-154,
-166,
-171,
-159,
-168,
-163,
-156,
-169,
-171,
-169,
-154,
-170,
-163,
-154,
-167,
-163,
-153,
-163,
-169,
-159,
-157,
-171,
-158,
-150,
-168,
-159,
-152,
-168,
-167,
-158,
-163,
-170,
-158,
-158,
-169,
-167,
-150,
-168,
-166,
-158,
-164,
-159,
-155,
-158,
-167,
-155,
-152,
-157,
-161,
-154,
-166,
-166,
-162,
-162,
-162,
-155,
-155,
-165,
-161,
-154,
-165,
-160,
-158,
-163,
-173,
-159,
-159,
-166,
-160,
-154,
-165,
-160,
-154,
-158,
-164,
-156,
-162,
-171,
-150,
-154,
-166,
-160,
-151,
-170,
-162,
-152,
-165,
-166,
-155,
-162,
-169,
-162,
-151,
-166,
-170,
-158,
-169,
-166,
-156,
-166,
-170,
-162,
-153,
-161,
-156,
-168,
-168,
-166,
-158,
-161,
-159,
-158,
-159,
-167,
-159,
-151,
-170,
-158,
-158,
-162,
-166,
-162,
-159,
-162,
-158,
-162,
-171,
-160,
-150,
-166,
-166,
-160,
-167,
-171,
-146,
-162,
-169,
-159,
-153,
-168,
-154,
-149,
-159,
-162,
-155,
-166,
-163,
-156,
-154,
-167,
-163,
-154,
-167,
-159,
-150,
-169,
-166,
-152,
-166,
-170,
-156,
-157,
-171,
-152,
-152,
-155,
-163,
-154,
-162,
-171,
-158,
-158,
-166,
-162,
-150,
-162,
-159,
-154,
-162,
-166,
-153,
-167,
-168,
-156,
-158,
-166,
-158,
-150,
-164,
-167,
-154,
-167,
-162,
-159,
-163,
-170,
-155,
-153,
-163,
-165,
-151,
-163,
-164,
-154,
-158,
-167,
-158,
-160,
-166,
-157,
-152,
-158,
-165,
-154,
-166,
-164,
-153,
-168,
-160,
-160,
-155,
-162,
-162,
-147,
-161,
-170,
-151,
-160,
-165,
-158,
-158,
-167,
-166,
-157,
-166,
-164,
-154,
-162,
-167,
-158,
-163,
-170,
-165,
-158,
-178,
-162,
-154,
-166,
-162,
-158,
-166,
-172,
-151,
-153,
-162,
-158,
-152,
-168,
-154,
-151,
-163,
-163,
-158,
-168,
-167,
-162,
-152,
-165,
-162,
-154,
-173,
-163,
-154,
-162,
-166,
-165,
-162,
-170,
-163,
-163,
-163,
-160,
-151,
-158,
-167,
-155,
-159,
-167,
-165,
-148,
-162,
-158,
-147,
-165,
-168,
-161,
-159,
-164,
-156,
-157,
-171,
-165,
-151,
-165,
-169,
-157,
-174,
-168,
-158,
-166,
-174,
-162,
-157,
-170,
-158,
-152,
-168,
-163,
-158,
-171,
-167,
-158,
-151,
-167,
-161,
-146,
-160,
-158,
-148,
-165,
-167,
-158,
-166,
-170,
-150,
-150,
-171,
-162,
-154,
-166,
-163,
-158,
-170,
-166,
-154,
-149,
-172,
-157,
-152,
-169,
-166,
-147,
-160,
-163,
-154,
-154,
-168,
-159,
-150,
-164,
-159,
-151,
-167,
-166,
-158,
-161,
-162,
-159,
-156,
-170,
-165,
-159,
-170,
-163,
-157,
-170,
-158,
-154,
-164,
-170,
-160,
-160,
-168,
-160,
-147,
-162,
-163,
-162,
-159,
-159,
-160,
-162,
-170,
-164,
-156,
-163,
-157,
-157,
-162,
-169,
-157,
-167,
-168,
-162,
-159,
-170,
-162,
-150,
-165,
-166,
-153,
-166,
-171,
-152,
-156,
-165,
-159,
-147,
-167,
-167,
-151,
-163,
-169,
-165,
-167,
-166,
-160,
-160,
-165,
-162,
-158,
-163,
-165,
-150,
-167,
-162,
-158,
-166,
-164,
-159,
-150,
-162,
-158,
-156,
-160,
-160,
-157,
-165,
-167,
-154,
-159,
-167,
-159,
-152,
-169,
-169,
-158,
-165,
-166,
-163,
-170,
-175,
-161,
-156,
-170,
-161,
-150,
-168,
-174,
-154,
-157,
-163,
-158,
-159,
-175,
-153,
-151,
-163,
-160,
-153,
-171,
-172,
-154,
-162,
-165,
-156,
-152,
-169,
-158,
-154,
-172,
-164,
-158,
-162,
-168,
-164,
-158,
-171,
-162,
-156,
-161,
-162,
-157,
-162,
-166,
-152,
-152,
-166,
-159,
-149,
-167,
-166,
-151,
-161,
-164,
-158,
-163,
-167,
-162,
-164,
-169,
-162,
-154,
-170,
-161,
-150,
-166,
-163,
-158,
-163,
-170,
-151,
-158,
-165,
-161,
-150,
-167,
-162,
-159,
-159,
-163,
-151,
-158,
-171,
-155,
-154,
-168,
-162,
-153,
-166,
-162,
-156,
-163,
-169,
-163,
-159,
-167,
-162,
-153,
-172,
-162,
-151,
-158,
-158,
-158,
-159,
-169,
-160,
-150,
-163,
-158,
-158,
-162,
-164,
-156,
-163,
-159,
-159,
-151,
-168,
-163,
-150,
-165,
-167,
-155,
-172,
-166,
-160,
-162,
-162,
-168,
-158,
-168,
-156,
-150,
-166,
-173,
-154,
-168,
-164,
-155,
-154,
-162,
-166,
-151,
-163,
-159,
-153,
-166,
-169,
-162,
-163,
-167,
-158,
-155,
-176,
-163,
-155,
-168,
-168,
-157,
-163,
-174,
-159,
-155,
-166,
-162,
-154,
-162,
-166,
-149,
-162,
-163,
-157,
-159,
-166,
-168,
-155,
-160,
-162,
-154,
-169,
-167,
-154,
-161,
-164,
-161,
-162,
-176,
-164,
-151,
-166,
-159,
-148,
-166,
-166,
-155,
-158,
-170,
-158,
-159,
-171,
-163,
-151,
-165,
-162,
-154,
-163,
-170,
-159,
-163,
-172,
-168,
-166,
-166,
-158,
-155,
-167,
-166,
-158,
-154,
-169,
-157,
-154,
-163,
-162,
-149,
-162,
-159,
-150,
-163,
-170,
-156,
-154,
-165,
-162,
-152,
-168,
-166,
-159,
-166,
-165,
-160,
-165,
-166,
-162,
-150,
-168,
-166,
-152,
-160,
-162,
-155,
-163,
-168,
-156,
-162,
-162,
-157,
-146,
-164,
-168,
-154,
-171,
-166,
-156,
-164,
-158,
-158,
-162,
-167,
-164,
-154,
-166,
-168,
-156,
-163,
-169,
-155,
-163,
-171,
-159,
-142,
-164,
-158,
-152,
-163,
-171,
-155,
-160,
-166,
-158,
-155,
-175,
-165,
-149,
-166,
-161,
-150,
-164,
-168,
-159,
-160,
-170,
-166,
-156,
-167,
-162,
-154,
-166,
-162,
-158,
-163,
-162,
-158,
-154,
-170,
-160,
-157,
-162,
-163,
-152,
-162,
-172,
-157,
-164,
-167,
-159,
-159,
-165,
-174,
-150,
-163,
-168,
-158,
-162,
-167,
-154,
-147,
-165,
-160,
-154,
-168,
-167,
-153,
-162,
-159,
-160,
-158,
-166,
-159,
-151,
-170,
-162,
-155,
-166,
-167,
-156,
-161,
-169,
-166,
-155,
-163,
-163,
-155,
-170,
-170,
-157,
-171,
-166,
-159,
-160,
-162,
-160,
-149,
-162,
-164,
-152,
-166,
-163,
-162,
-163,
-162,
-156,
-156,
-167,
-158,
-155,
-161,
-163,
-158,
-167,
-176,
-161,
-158,
-165,
-157,
-162,
-167,
-167,
-150,
-162,
-167,
-154,
-161,
-167,
-154,
-154,
-167,
-158,
-150,
-173,
-166,
-152,
-162,
-172,
-154,
-162,
-168,
-158,
-154,
-166,
-163,
-159,
-162,
-169,
-154,
-164,
-168,
-160,
-158,
-160,
-162,
-151,
-166,
-162,
-154,
-165,
-165,
-156,
-158,
-164,
-167,
-160,
-170,
-162,
-151,
-163,
-165,
-162,
-163,
-167,
-159,
-159,
-168,
-168,
-146,
-162,
-164,
-151,
-167,
-165,
-152,
-156,
-168,
-158,
-155,
-169,
-162,
-149,
-162,
-167,
-154,
-169,
-174,
-155,
-150,
-170,
-160,
-155,
-162,
-162,
-156,
-165,
-166,
-166,
-161,
-166,
-162,
-160,
-166,
-166,
-155,
-157,
-167,
-166,
-166,
-166,
-167,
-148,
-166,
-162,
-152,
-167,
-162,
-151,
-165,
-165,
-156,
-161,
-179,
-162,
-154,
-171,
-164,
-154,
-170,
-164,
-161,
-165,
-168,
-162,
-159,
-169,
-159,
-154,
-166,
-162,
-157,
-170,
-163,
-154,
-159,
-166,
-158,
-159,
-169,
-162,
-150,
-166,
-170,
-159,
-166,
-166,
-156,
-158,
-167,
-163,
-153,
-168,
-163,
-155,
-170,
-174,
-152,
-155,
-166,
-155,
-155,
-171,
-168,
-150,
-160,
-166,
-146,
-160,
-168,
-157,
-153,
-165,
-158,
-158,
-172,
-171,
-150,
-163,
-167,
-158,
-162,
-174,
-159,
-155,
-166,
-163,
-154,
-165,
-161,
-154,
-166,
-170,
-158,
-154,
-166,
-162,
-150,
-165,
-163,
-154,
-169,
-166,
-163,
-158,
-168,
-167,
-158,
-164,
-163,
-150,
-162,
-170,
-152,
-162,
-167,
-156,
-156,
-163,
-158,
-154,
-168,
-163,
-151,
-164,
-166,
-162,
-161,
-162,
-163,
-156,
-166,
-169,
-156,
-162,
-167,
-154,
-164,
-172,
-154,
-154,
-166,
-166,
-158,
-170,
-166,
-154,
-164,
-170,
-163,
-162,
-160,
-161,
-146,
-164,
-166,
-149,
-167,
-162,
-157,
-162,
-170,
-165,
-159,
-167,
-161,
-153,
-165,
-165,
-158,
-162,
-162,
-162,
-161,
-174,
-161,
-152,
-166,
-162,
-152,
-160,
-172,
-155,
-159,
-162,
-159,
-156,
-167,
-156,
-147,
-165,
-162,
-154,
-173,
-165,
-158,
-158,
-169,
-162,
-155,
-176,
-159,
-150,
-163,
-158,
-161,
-161,
-159,
-158,
-154,
-170,
-166,
-149,
-161,
-162,
-150,
-166,
-164,
-154,
-163,
-171,
-155,
-153,
-166,
-163,
-167,
-167,
-163,
-154,
-167,
-170,
-153,
-156,
-173,
-160,
-154,
-172,
-166,
-143,
-166,
-163,
-158,
-156,
-166,
-158,
-152,
-162,
-160,
-151,
-167,
-158,
-152,
-163,
-163,
-159,
-162,
-178,
-159,
-151,
-164,
-162,
-156,
-165,
-171,
-151,
-164,
-171,
-165,
-156,
-164,
-156,
-150,
-162,
-164,
-151,
-162,
-162,
-162,
-155,
-168,
-150,
-150,
-168,
-159,
-149,
-174,
-167,
-165,
-161,
-169,
-158,
-152,
-166,
-165,
-154,
-166,
-160,
-156,
-169,
-170,
-155,
-160,
-163,
-164,
-149,
-163,
-156,
-154,
-157,
-166,
-155,
-165,
-163,
-155,
-154,
-160,
-165,
-151,
-166,
-162,
-155,
-166,
-168,
-163,
-158,
-168,
-166,
-154,
-168,
-170,
-162,
-174,
-163,
-155,
-159,
-167,
-150,
-151,
-161,
-161,
-153,
-159,
-159,
-162,
-158,
-166,
-159,
-162,
-169,
-158,
-154,
-166,
-164,
-157,
-169,
-163,
-156,
-162,
-166,
-159,
-153,
-174,
-154,
-150,
-163,
-164,
-158,
-169,
-162,
-152,
-156,
-167,
-160,
-154,
-163,
-160,
-151,
-170,
-166,
-159,
-166,
-166,
-159,
-155,
-164,
-170,
-147,
-165,
-158,
-158,
-163,
-165,
-161,
-147,
-169,
-158,
-152,
-163,
-158,
-163,
-163,
-168,
-162,
-162,
-168,
-165,
-157,
-160,
-155,
-147,
-169,
-167,
-157,
-165,
-170,
-162,
-162,
-173,
-161,
-151,
-166,
-159,
-150,
-167,
-159,
-155,
-159,
-166,
-163,
-159,
-162,
-160,
-150,
-162,
-162,
-162,
-171,
-166,
-162,
-158,
-163,
-158,
-154,
-167,
-167,
-158,
-162,
-174,
-154,
-155,
-171,
-162,
-154,
-166,
-147,
-147,
-166,
-166,
-156,
-162,
-168,
-155,
-151,
-164,
-159,
-154,
-166,
-168,
-152,
-166,
-167,
-154,
-168,
-170,
-158,
-150,
-168,
-162,
-151,
-166,
-159,
-153,
-166,
-164,
-162,
-160,
-166,
-162,
-145,
-167,
-162,
-151,
-163,
-163,
-161,
-161,
-172,
-162,
-154,
-166,
-159,
-152,
-166,
-168,
-154,
-162,
-167,
-163,
-160,
-171,
-171,
-152,
-160,
-161,
-156,
-164,
-163,
-150,
-155,
-163,
-154,
-154,
-164,
-165,
-150,
-162,
-163,
-155,
-165,
-168,
-154,
-162,
-166,
-159,
-157,
-162,
-166,
-151,
-168,
-166,
-156,
-169,
-165,
-155,
-154,
-163,
-164,
-152,
-158,
-162,
-150,
-163,
-164,
-163,
-165,
-166,
-162,
-158,
-165,
-163,
-152,
-165,
-167,
-166,
-169,
-163,
-163,
-156,
-165,
-166,
-152,
-165,
-162,
-155,
-162,
-160,
-162,
-163,
-169,
-155,
-153,
-166,
-162,
-146,
-169,
-165,
-155,
-162,
-169,
-154,
-158,
-170,
-164,
-151,
-166,
-167,
-162,
-166,
-164,
-157,
-159,
-166,
-164,
-152,
-164,
-161,
-148,
-165,
-168,
-162,
-157,
-164,
-158,
-158,
-166,
-159,
-158,
-166,
-154,
-150,
-158,
-170,
-158,
-159,
-158,
-158,
-158,
-168,
-168,
-150,
-163,
-164,
-154,
-170,
-166,
-154,
-158,
-163,
-162,
-156,
-173,
-155,
-150,
-164,
-162,
-166,
-159,
-170,
-161,
-152,
-164,
-158,
-154,
-169,
-166,
-156,
-165,
-170,
-161,
-162,
-169,
-162,
-154,
-167,
-168,
-152,
-158,
-164,
-154,
-163,
-168,
-164,
-150,
-167,
-162,
-149,
-162,
-166,
-165,
-163,
-163,
-163,
-155,
-178,
-165,
-157,
-165,
-166,
-155,
-167,
-167,
-154,
-156,
-169,
-163,
-158,
-168,
-154,
-150,
-162,
-164,
-159,
-160,
-162,
-152,
-152,
-166,
-156,
-152,
-163,
-162,
-147,
-160,
-168,
-166,
-163,
-164,
-159,
-162,
-167,
-167,
-157,
-163,
-166,
-152,
-162,
-167,
-152,
-150,
-168,
-162,
-154,
-164,
-163,
-156,
-156,
-161,
-157,
-162,
-168,
-158,
-157,
-166,
-161,
-154,
-174,
-164,
-150,
-166,
-162,
-158,
-171,
-171,
-159,
-151,
-164,
-164,
-151,
-165,
-161,
-152,
-165,
-166,
-158,
-154,
-166,
-161,
-152,
-163,
-166,
-157,
-168,
-158,
-155,
-160,
-166,
-169,
-152,
-162,
-163,
-154,
-166,
-166,
-158,
-165,
-169,
-161,
-157,
-167,
-167,
-144,
-170,
-158,
-151,
-164,
-168,
-158,
-158,
-170,
-162,
-150,
-166,
-166,
-150,
-162,
-162,
-155,
-166,
-172,
-156,
-158,
-162,
-163,
-159,
-170,
-160,
-154,
-167,
-165,
-158,
-169,
-166,
-161,
-147,
-163,
-158,
-154,
-164,
-158,
-154,
-163,
-166,
-164,
-161,
-174,
-155,
-148,
-168,
-175,
-159,
-164,
-164,
-162,
-158,
-174,
-160,
-153,
-166,
-166,
-153,
-162,
-164,
-162,
-162,
-166,
-156,
-163,
-163,
-157,
-150,
-166,
-160,
-151,
-168,
-174,
-156,
-160,
-169,
-159,
-154,
-169,
-161,
-158,
-163,
-169,
-165,
-162,
-166,
-161,
-158,
-175,
-163,
-156,
-160,
-161,
-155,
-166,
-170,
-157,
-157,
-167,
-161,
-152,
-166,
-163,
-158,
-166,
-164,
-160,
-162,
-167,
-162,
-162,
-163,
-170,
-153,
-174,
-150,
-150,
-163,
-167,
-162,
-162,
-168,
-155,
-152,
-166,
-162,
-154,
-167,
-158,
-155,
-161,
-163,
-152,
-161,
-173,
-158,
-147,
-164,
-165,
-153,
-162,
-163,
-158,
-161,
-171,
-167,
-155,
-169,
-160,
-152,
-166,
-169,
-158,
-154,
-164,
-154,
-156,
-169,
-168,
-147,
-163,
-162,
-154,
-166,
-165,
-163,
-161,
-162,
-158,
-157,
-159,
-159,
-150,
-166,
-165,
-158,
-170,
-170,
-156,
-158,
-166,
-162,
-154,
-170,
-162,
-146,
-166,
-160,
-157,
-163,
-176,
-160,
-157,
-162,
-165,
-157,
-171,
-164,
-158,
-161,
-168,
-159,
-158,
-170,
-161,
-158,
-166,
-166,
-160,
-162,
-162,
-155,
-162,
-167,
-156,
-151,
-166,
-157,
-155,
-170,
-161,
-154,
-162,
-164,
-158,
-167,
-167,
-157,
-150,
-167,
-166,
-155,
-170,
-159,
-158,
-166,
-170,
-155,
-163,
-170,
-160,
-155,
-161,
-160,
-158,
-163,
-164,
-158,
-160,
-162,
-160,
-159,
-162,
-159,
-153,
-163,
-165,
-151,
-166,
-166,
-163,
-162,
-162,
-167,
-152,
-170,
-166,
-150,
-166,
-172,
-166,
-153,
-164,
-161,
-155,
-169,
-166,
-146,
-165,
-171,
-158,
-167,
-167,
-165,
-163,
-166,
-163,
-147,
-165,
-164,
-157,
-160,
-167,
-158,
-167,
-163,
-156,
-158,
-169,
-164,
-157,
-165,
-163,
-158,
-161,
-164,
-162,
-166,
-163,
-160,
-143,
-165,
-155,
-164,
-173,
-164,
-151,
-166,
-162,
-163,
-164,
-166,
-164,
-155,
-165,
-170,
-159,
-170,
-166,
-161,
-159,
-174,
-155,
-143,
-167,
-163,
-150,
-167,
-169,
-153,
-159,
-159,
-159,
-158,
-169,
-166,
-149,
-164,
-165,
-159,
-166,
-166,
-160,
-154,
-168,
-162,
-156,
-167,
-160,
-154,
-168,
-166,
-165,
-164,
-167,
-155,
-154,
-166,
-162,
-158,
-163,
-160,
-152,
-163,
-164,
-158,
-161,
-168,
-161,
-154,
-168,
-166,
-159,
-160,
-171,
-154,
-161,
-164,
-163,
-158,
-167,
-160,
-153,
-169,
-159,
-150,
-168,
-168,
-159,
-162,
-167,
-164,
-152,
-166,
-159,
-151,
-165,
-155,
-155,
-162,
-171,
-155,
-162,
-171,
-162,
-152,
-167,
-166,
-155,
-169,
-166,
-161,
-166,
-170,
-165,
-158,
-164,
-163,
-149,
-164,
-165,
-158,
-158,
-163,
-159,
-156,
-167,
-162,
-146,
-163,
-164,
-151,
-163,
-174,
-162,
-161,
-169,
-162,
-153,
-170,
-162,
-154,
-163,
-166,
-165,
-165,
-163,
-143,
-163,
-163,
-160,
-155,
-170,
-158,
-154,
-162,
-168,
-152,
-163,
-174,
-162,
-159,
-171,
-162,
-157,
-159,
-171,
-155,
-163,
-165,
-163,
-158,
-166,
-158,
-151,
-171,
-162,
-154,
-154,
-171,
-150,
-159,
-166,
-159,
-151,
-159,
-161,
-159,
-163,
-163,
-160,
-162,
-166,
-160,
-161,
-178,
-165,
-150,
-166,
-152,
-152,
-167,
-167,
-154,
-163,
-168,
-159,
-158,
-171,
-151,
-148,
-166,
-166,
-152,
-165,
-165,
-155,
-158,
-167,
-164,
-151,
-173,
-166,
-146,
-167,
-165,
-161,
-166,
-171,
-154,
-159,
-173,
-164,
-146,
-157,
-166,
-155,
-169,
-168,
-163,
-160,
-168,
-160,
-152,
-168,
-163,
-149,
-165,
-161,
-155,
-162,
-170,
-167,
-155,
-174,
-166,
-150,
-163,
-165,
-159,
-160,
-160,
-166,
-165,
-167,
-158,
-156,
-166,
-165,
-157,
-164,
-159,
-157,
-158,
-165,
-160,
-161,
-166,
-160,
-158,
-160,
-163,
-154,
-165,
-166,
-158,
-158,
-164,
-162,
-162,
-166,
-166,
-157,
-173,
-167,
-162,
-158,
-167,
-162,
-153,
-163,
-162,
-150,
-162,
-164,
-154,
-162,
-178,
-154,
-161,
-166,
-157,
-154,
-171,
-165,
-163,
-163,
-166,
-158,
-170,
-171,
-159,
-160,
-169,
-163,
-158,
-162,
-163,
-155,
-165,
-165,
-155,
-163,
-165,
-156,
-155,
-167,
-162,
-152,
-162,
-162,
-156,
-162,
-167,
-167,
-159,
-167,
-156,
-155,
-167,
-169,
-156,
-168,
-166,
-158,
-158,
-173,
-163,
-144,
-164,
-159,
-154,
-166,
-166,
-152,
-155,
-163,
-159,
-160,
-170,
-170,
-146,
-166,
-166,
-154,
-177,
-166,
-151,
-159,
-167,
