PhotoDiode_Data/SILVER/LampOnLaserOff/A0032CH1.CSV

Memory Length,4000,
Trigger Level,-2.480E-01,
Source,CH1,
Probe,1X,
Vertical Units,V,
Vertical Scale,1.000E-02,
Vertical Position,1.032E-01,
Horizontal Units,s,
Horizontal Scale,2.500E-01,
Horizontal Position,0.000E+00,
Horizontal Mode,Roll Mode,
Sampling Period,1.000E-03,
Firmware, V1.26,
Time, ,
Mode,Fast,
Waveform Data,
-144,
-141,
-131,
-146,
-146,
-131,
-145,
-143,
-140,
-134,
-134,
-138,
-147,
-133,
-138,
-150,
-145,
-136,
-146,
-135,
-131,
-138,
-143,
-136,
-142,
-134,
-143,
-144,
-142,
-138,
-143,
-135,
-134,
-142,
-134,
-131,
-147,
-136,
-132,
-152,
-143,
-131,
-142,
-147,
-137,
-142,
-147,
-143,
-143,
-143,
-134,
-131,
-145,
-146,
-133,
-143,
-139,
-133,
-144,
-146,
-131,
-140,
-150,
-142,
-134,
-145,
-138,
-131,
-140,
-142,
-134,
-141,
-142,
-137,
-142,
-146,
-135,
-138,
-149,
-138,
-134,
-151,
-142,
-131,
-143,
-143,
-132,
-142,
-143,
-132,
-139,
-146,
-134,
-131,
-146,
-138,
-135,
-147,
-138,
-131,
-143,
-143,
-138,
-144,
-144,
-133,
-143,
-144,
-137,
-131,
-149,
-140,
-132,
-147,
-138,
-131,
-150,
-147,
-134,
-147,
-146,
-134,
-143,
-147,
-135,
-131,
-144,
-139,
-131,
-157,
-141,
-131,
-146,
-144,
-135,
-143,
-147,
-132,
-138,
-146,
-138,
-132,
-150,
-144,
-137,
-148,
-146,
-131,
-139,
-142,
-135,
-138,
-144,
-136,
-145,
-148,
-142,
-131,
-146,
-142,
-131,
-146,
-143,
-131,
-146,
-146,
-135,
-145,
-147,
-134,
-141,
-141,
-136,
-131,
-145,
-142,
-131,
-147,
-147,
-131,
-144,
-146,
-133,
-140,
-147,
-136,
-135,
-146,
-137,
-138,
-143,
-139,
-132,
-148,
-148,
-131,
-138,
-144,
-137,
-140,
-141,
-139,
-133,
-146,
-142,
-132,
-146,
-143,
-136,
-147,
-143,
-134,
-138,
-144,
-134,
-136,
-146,
-135,
-135,
-154,
-142,
-132,
-142,
-142,
-133,
-146,
-143,
-134,
-142,
-144,
-134,
-140,
-147,
-134,
-138,
-147,
-139,
-133,
-140,
-140,
-131,
-146,
-144,
-131,
-143,
-149,
-134,
-139,
-152,
-137,
-135,
-143,
-148,
-131,
-137,
-142,
-131,
-145,
-151,
-131,
-146,
-144,
-138,
-142,
-151,
-134,
-133,
-146,
-148,
-131,
-146,
-142,
-131,
-142,
-143,
-132,
-145,
-139,
-139,
-146,
-152,
-137,
-131,
-146,
-146,
-131,
-145,
-141,
-133,
-143,
-149,
-131,
-138,
-147,
-138,
-136,
-145,
-138,
-131,
-143,
-144,
-131,
-143,
-135,
-131,
-142,
-146,
-131,
-139,
-146,
-138,
-144,
-142,
-138,
-134,
-150,
-141,
-132,
-139,
-144,
-132,
-143,
-141,
-131,
-138,
-148,
-136,
-138,
-148,
-134,
-131,
-141,
-141,
-131,
-144,
-138,
-136,
-141,
-153,
-131,
-135,
-148,
-142,
-139,
-147,
-139,
-131,
-143,
-142,
-131,
-141,
-140,
-139,
-141,
-145,
-132,
-138,
-149,
-140,
-136,
-147,
-139,
-131,
-143,
-146,
-138,
-143,
-143,
-134,
-144,
-147,
-136,
-134,
-144,
-136,
-134,
-146,
-147,
-131,
-140,
-143,
-132,
-141,
-145,
-136,
-142,
-142,
-136,
-142,
-142,
-138,
-139,
-147,
-143,
-132,
-139,
-145,
-138,
-140,
-143,
-133,
-142,
-143,
-136,
-132,
-142,
-139,
-134,
-150,
-143,
-131,
-146,
-143,
-132,
-146,
-142,
-131,
-143,
-146,
-134,
-141,
-145,
-143,
-137,
-146,
-138,
-132,
-143,
-137,
-131,
-137,
-145,
-139,
-138,
-149,
-137,
-137,
-142,
-147,
-138,
-150,
-140,
-131,
-141,
-145,
-134,
-135,
-147,
-142,
-142,
-152,
-147,
-132,
-147,
-138,
-132,
-148,
-150,
-131,
-137,
-146,
-135,
-138,
-146,
-140,
-137,
-150,
-142,
-131,
-142,
-144,
-131,
-144,
-143,
-133,
-142,
-143,
-138,
-135,
-150,
-139,
-141,
-147,
-147,
-131,
-145,
-143,
-131,
-150,
-144,
-131,
-145,
-142,
-138,
-137,
-147,
-137,
-133,
-151,
-141,
-133,
-144,
-142,
-138,
-138,
-151,
-133,
-143,
-146,
-132,
-137,
-146,
-138,
-139,
-149,
-146,
-131,
-144,
-139,
-131,
-141,
-142,
-134,
-140,
-147,
-138,
-131,
-150,
-137,
-133,
-149,
-146,
-131,
-140,
-144,
-138,
-146,
-142,
-131,
-142,
-142,
-134,
-133,
-150,
-138,
-132,
-147,
-144,
-131,
-141,
-143,
-132,
-144,
-140,
-138,
-144,
-144,
-141,
-143,
-143,
-136,
-135,
-149,
-146,
-132,
-139,
-139,
-133,
-146,
-145,
-138,
-146,
-150,
-136,
-143,
-143,
-141,
-135,
-150,
-139,
-131,
-144,
-150,
-131,
-143,
-139,
-135,
-140,
-147,
-146,
-138,
-140,
-138,
-132,
-148,
-141,
-131,
-143,
-144,
-133,
-147,
-142,
-132,
-142,
-146,
-144,
-137,
-147,
-134,
-131,
-147,
-140,
-144,
-144,
-139,
-137,
-143,
-142,
-139,
-139,
-148,
-147,
-135,
-146,
-139,
-131,
-144,
-149,
-131,
-138,
-143,
-134,
-151,
-150,
-140,
-142,
-144,
-134,
-138,
-154,
-139,
-132,
-145,
-145,
-132,
-142,
-142,
-135,
-142,
-143,
-131,
-138,
-144,
-142,
-138,
-148,
-138,
-131,
-146,
-144,
-131,
-144,
-150,
-137,
-138,
-143,
-134,
-139,
-149,
-141,
-134,
-147,
-140,
-131,
-141,
-134,
-134,
-142,
-142,
-134,
-146,
-150,
-135,
-131,
-151,
-142,
-135,
-144,
-143,
-131,
-143,
-146,
-134,
-140,
-149,
-139,
-142,
-150,
-134,
-135,
-142,
-143,
-136,
-146,
-138,
-131,
-145,
-142,
-139,
-141,
-140,
-134,
-136,
-150,
-136,
-131,
-143,
-143,
-131,
-150,
-144,
-131,
-142,
-150,
-134,
-141,
-146,
-135,
-139,
-149,
-132,
-132,
-144,
-141,
-138,
-150,
-140,
-131,
-140,
-148,
-138,
-132,
-147,
-131,
-136,
-145,
-134,
-131,
-147,
-138,
-135,
-150,
-138,
-132,
-140,
-143,
-143,
-141,
-149,
-138,
-137,
-145,
-142,
-131,
-142,
-139,
-131,
-144,
-146,
-135,
-138,
-143,
-133,
-133,
-151,
-137,
-132,
-146,
-140,
-131,
-147,
-139,
-131,
-145,
-144,
-144,
-144,
-147,
-138,
-131,
-146,
-140,
-134,
-146,
-134,
-134,
-145,
-143,
-131,
-147,
-142,
-131,
-143,
-149,
-136,
-143,
-147,
-136,
-135,
-146,
-136,
-131,
-143,
-143,
-134,
-148,
-145,
-131,
-144,
-153,
-138,
-138,
-144,
-138,
-136,
-146,
-133,
-131,
-143,
-142,
-136,
-142,
-144,
-132,
-145,
-152,
-132,
-136,
-145,
-138,
-147,
-147,
-143,
-132,
-143,
-142,
-133,
-134,
-139,
-132,
-146,
-154,
-139,
-135,
-142,
-141,
-134,
-150,
-138,
-131,
-144,
-139,
-132,
-143,
-139,
-142,
-142,
-147,
-135,
-134,
-144,
-138,
-131,
-143,
-142,
-131,
-144,
-139,
-131,
-140,
-144,
-138,
-142,
-154,
-142,
-136,
-146,
-137,
-131,
-146,
-140,
-131,
-146,
-142,
-134,
-145,
-145,
-132,
-136,
-151,
-138,
-136,
-147,
-138,
-131,
-148,
-138,
-131,
-143,
-146,
-136,
-149,
-144,
-137,
-135,
-152,
-141,
-131,
-144,
-142,
-134,
-149,
-136,
-131,
-143,
-146,
-136,
-147,
-142,
-132,
-137,
-146,
-138,
-131,
-147,
-142,
-131,
-142,
-142,
-131,
-142,
-147,
-139,
-142,
-143,
-134,
-142,
-143,
-145,
-131,
-143,
-140,
-133,
-150,
-148,
-131,
-148,
-148,
-136,
-140,
-148,
-135,
-139,
-145,
-140,
-131,
-147,
-141,
-131,
-150,
-145,
-134,
-139,
-143,
-135,
-145,
-144,
-137,
-135,
-151,
-140,
-131,
-142,
-144,
-131,
-147,
-146,
-131,
-138,
-145,
-138,
-139,
-136,
-138,
-138,
-142,
-135,
-131,
-143,
-143,
-131,
-150,
-145,
-134,
-142,
-142,
-139,
-145,
-145,
-135,
-141,
-142,
-142,
-131,
-142,
-146,
-131,
-142,
-150,
-131,
-142,
-142,
-138,
-140,
-144,
-143,
-132,
-144,
-138,
-131,
-146,
-143,
-134,
-147,
-146,
-133,
-146,
-149,
-143,
-142,
-146,
-139,
-133,
-142,
-142,
-131,
-143,
-141,
-131,
-150,
-146,
-136,
-137,
-144,
-142,
-138,
-144,
-138,
-131,
-146,
-137,
-131,
-138,
-143,
-131,
-143,
-147,
-137,
-139,
-138,
-138,
-137,
-150,
-134,
-131,
-146,
-145,
-135,
-142,
-139,
-131,
-149,
-147,
-134,
-138,
-149,
-133,
-132,
-151,
-143,
-131,
-142,
-148,
-131,
-141,
-142,
-137,
-146,
-149,
-131,
-141,
-144,
-139,
-136,
-143,
-139,
-134,
-146,
-148,
-133,
-147,
-146,
-131,
-142,
-142,
-134,
-139,
-146,
-134,
-133,
-143,
-138,
-131,
-146,
-134,
-134,
-140,
-143,
-131,
-143,
-144,
-134,
-137,
-147,
-144,
-138,
-142,
-139,
-131,
-147,
-148,
-135,
-143,
-140,
-135,
-145,
-151,
-131,
-138,
-145,
-138,
-139,
-154,
-136,
-131,
-146,
-145,
-134,
-143,
-145,
-135,
-143,
-150,
-132,
-138,
-149,
-139,
-138,
-147,
-141,
-131,
-143,
-146,
-131,
-142,
-147,
-133,
-139,
-142,
-134,
-134,
-146,
-140,
-138,
-150,
-145,
-132,
-147,
-142,
-133,
-132,
-144,
-134,
-141,
-142,
-134,
-140,
-143,
-142,
-138,
-142,
-142,
-131,
-143,
-141,
-138,
-143,
-143,
-140,
-148,
-150,
-139,
-137,
-146,
-142,
-136,
-146,
-136,
-131,
-142,
-147,
-131,
-144,
-143,
-135,
-140,
-147,
-134,
-134,
-149,
-143,
-137,
-143,
-142,
-131,
-142,
-145,
-138,
-139,
-135,
-135,
-142,
-150,
-138,
-139,
-151,
-139,
-133,
-144,
-145,
-131,
-145,
-152,
-133,
-144,
-142,
-134,
-135,
-146,
-139,
-134,
-149,
-145,
-133,
-147,
-141,
-135,
-149,
-145,
-134,
-142,
-151,
-135,
-135,
-144,
-131,
-132,
-142,
-141,
-138,
-148,
-139,
-133,
-149,
-150,
-138,
-139,
-148,
-135,
-135,
-145,
-134,
-132,
-146,
-146,
-131,
-136,
-146,
-134,
-146,
-150,
-139,
-147,
-142,
-138,
-136,
-151,
-133,
-131,
-146,
-145,
-134,
-142,
-139,
-134,
-145,
-146,
-138,
-134,
-139,
-136,
-138,
-147,
-136,
-132,
-147,
-141,
-131,
-147,
-141,
-132,
-143,
-150,
-139,
-139,
-142,
-138,
-138,
-146,
-134,
-131,
-143,
-140,
-136,
-146,
-143,
-134,
-140,
-131,
-131,
-138,
-146,
-140,
-136,
-150,
-137,
-131,
-143,
-149,
-139,
-146,
-143,
-132,
-143,
-151,
-137,
-138,
-144,
-138,
-132,
-147,
-131,
-131,
-145,
-143,
-131,
-142,
-143,
-132,
-144,
-152,
-137,
-136,
-140,
-134,
-131,
-155,
-139,
-134,
-146,
-142,
-131,
-143,
-144,
-136,
-143,
-143,
-141,
-133,
-138,
-139,
-135,
-147,
-142,
-131,
-142,
-133,
-133,
-135,
-141,
-132,
-141,
-150,
-136,
-133,
-141,
-142,
-134,
-145,
-139,
-134,
-144,
-143,
-134,
-139,
-146,
-138,
-142,
-155,
-134,
-135,
-148,
-142,
-131,
-142,
-138,
-131,
-143,
-151,
-135,
-143,
-144,
-132,
-140,
-147,
-147,
-132,
-144,
-146,
-131,
-146,
-138,
-134,
-142,
-150,
-135,
-148,
-146,
-140,
-136,
-151,
-139,
-134,
-147,
-138,
-131,
-138,
-138,
-132,
-140,
-146,
-147,
-134,
-146,
-135,
-138,
-142,
-141,
-131,
-146,
-143,
-131,
-145,
-142,
-131,
-143,
-146,
-142,
-140,
-146,
-138,
-135,
-146,
-140,
-131,
-143,
-143,
-131,
-146,
-139,
-132,
-141,
-150,
-135,
-146,
-143,
-134,
-137,
-142,
-139,
-131,
-142,
-145,
-131,
-138,
-137,
-135,
-146,
-146,
-145,
-144,
-131,
-131,
-132,
-143,
-146,
-131,
-142,
-144,
-131,
-144,
-142,
-134,
-142,
-146,
-131,
-133,
-142,
-136,
-133,
-148,
-138,
-135,
-142,
-146,
-135,
-142,
-145,
-134,
-142,
-150,
-140,
-135,
-150,
-143,
-133,
-146,
-144,
-131,
-145,
-142,
-131,
-140,
-134,
-139,
-139,
-146,
-134,
-139,
-143,
-135,
-131,
-142,
-140,
-131,
-142,
-132,
-132,
-143,
-150,
-139,
-141,
-150,
-139,
-131,
-146,
-138,
-131,
-149,
-146,
-131,
-140,
-144,
-134,
-142,
-147,
-135,
-136,
-147,
-138,
-135,
-141,
-139,
-131,
-149,
-136,
-134,
-141,
-141,
-134,
-145,
-144,
-138,
-138,
-141,
-138,
-142,
-141,
-136,
-133,
-145,
-147,
-139,
-139,
-138,
-135,
-147,
-150,
-131,
-132,
-150,
-142,
-142,
-154,
-140,
-131,
-143,
-142,
-137,
-142,
-146,
-138,
-142,
-146,
-135,
-139,
-145,
-143,
-132,
-146,
-138,
-131,
-144,
-143,
-135,
-139,
-143,
-137,
-145,
-154,
-146,
-137,
-150,
-140,
-133,
-145,
-137,
-132,
-139,
-140,
-139,
-150,
-142,
-132,
-136,
-147,
-142,
-139,
-150,
-143,
-134,
-145,
-140,
-133,
-143,
-147,
-145,
-145,
-143,
-138,
-143,
-146,
-138,
-131,
-146,
-143,
-131,
-142,
-146,
-131,
-139,
-141,
-134,
-145,
-150,
-137,
-138,
-149,
-135,
-133,
-143,
-142,
-134,
-145,
-139,
-131,
-146,
-145,
-134,
-142,
-148,
-136,
-141,
-143,
-138,
-131,
-141,
-142,
-131,
-152,
-146,
-131,
-138,
-142,
-140,
-139,
-136,
-132,
-140,
-146,
-139,
-131,
-140,
-146,
-131,
-149,
-148,
-144,
-144,
-141,
-134,
-143,
-143,
-139,
-135,
-142,
-148,
-131,
-143,
-144,
-132,
-147,
-151,
-131,
-136,
-150,
-133,
-140,
-147,
-137,
-136,
-141,
-142,
-131,
-147,
-139,
-131,
-143,
-143,
-131,
-141,
-150,
-146,
-140,
-141,
-138,
-136,
-146,
-142,
-131,
-146,
-143,
-134,
-142,
-143,
-138,
-139,
-150,
-134,
-138,
-147,
-142,
-131,
-143,
-142,
-142,
-142,
-143,
-133,
-151,
-150,
-134,
-141,
-147,
-142,
-140,
-144,
-136,
-133,
-144,
-142,
-131,
-146,
-144,
-135,
-141,
-146,
-134,
-139,
-144,
-141,
-135,
-152,
-137,
-131,
-150,
-149,
-131,
-139,
-148,
-134,
-144,
-150,
-133,
-134,
-150,
-140,
-138,
-144,
-140,
-131,
-141,
-142,
-131,
-142,
-144,
-131,
-149,
-147,
-142,
-142,
-146,
-149,
-134,
-143,
-138,
-134,
-142,
-144,
-134,
-143,
-147,
-134,
-142,
-144,
-133,
-136,
-146,
-143,
-138,
-146,
-138,
-131,
-149,
-141,
-132,
-144,
-141,
-144,
-138,
-146,
-138,
-134,
-150,
-136,
-131,
-142,
-146,
-131,
-145,
-146,
-135,
-143,
-143,
-134,
-146,
-144,
-136,
-136,
-149,
-146,
-131,
-142,
-141,
-140,
-140,
-150,
-131,
-141,
-147,
-140,
-147,
-150,
-136,
-134,
-150,
-136,
-139,
-143,
-144,
-136,
-141,
-144,
-131,
-144,
-146,
-134,
-139,
-151,
-139,
-137,
-146,
-142,
-131,
-147,
-135,
-131,
-142,
-138,
-131,
-142,
-143,
-140,
-139,
-148,
-136,
-136,
-147,
-144,
-131,
-143,
-138,
-131,
-141,
-144,
-131,
-146,
-147,
-141,
-144,
-148,
-133,
-131,
-146,
-145,
-131,
-142,
-142,
-132,
-142,
-145,
-131,
-142,
-150,
-142,
-138,
-138,
-142,
-131,
-146,
-148,
-133,
-143,
-142,
-131,
-142,
-149,
-133,
-144,
-147,
-140,
-136,
-146,
-138,
-133,
-146,
-142,
-139,
-146,
-142,
-133,
-138,
-140,
-138,
-139,
-144,
-138,
-134,
-142,
-139,
-133,
-142,
-150,
-133,
-142,
-138,
-134,
-142,
-142,
-133,
-143,
-143,
-140,
-133,
-142,
-142,
-132,
-145,
-145,
-135,
-138,
-142,
-132,
-143,
-150,
-134,
-139,
-146,
-138,
-134,
-144,
-142,
-133,
-150,
-144,
-131,
-138,
-145,
-135,
-151,
-146,
-140,
-138,
-142,
-141,
-141,
-136,
-140,
-134,
-145,
-150,
-131,
-139,
-145,
-139,
-146,
-150,
-138,
-135,
-143,
-142,
-131,
-136,
-142,
-131,
-140,
-140,
-131,
-141,
-142,
-132,
-146,
-151,
-131,
-134,
-147,
-141,
-136,
-134,
-139,
-131,
-149,
-150,
-133,
-137,
-146,
-138,
-146,
-152,
-139,
-134,
-143,
-139,
-131,
-146,
-138,
-134,
-142,
-150,
-134,
-134,
-142,
-139,
-140,
-147,
-139,
-131,
-144,
-143,
-131,
-134,
-139,
-134,
-144,
-138,
-131,
-138,
-146,
-134,
-147,
-140,
-140,
-132,
-145,
-141,
-135,
-145,
-144,
-132,
-142,
-141,
-138,
-143,
-146,
-141,
-138,
-146,
-138,
-131,
-144,
-143,
-131,
-146,
-146,
-131,
-140,
-147,
-131,
-139,
-146,
-138,
-146,
-148,
-139,
-131,
-145,
-146,
-134,
-143,
-140,
-131,
-147,
-148,
-139,
-137,
-147,
-139,
-139,
-150,
-138,
-131,
-142,
-142,
-131,
-144,
-143,
-134,
-140,
-135,
-135,
-134,
-144,
-139,
-141,
-151,
-140,
-131,
-147,
-147,
-131,
-145,
-145,
-135,
-141,
-140,
-131,
-142,
-146,
-138,
-137,
-149,
-138,
-131,
-144,
-147,
-138,
-141,
-143,
-136,
-146,
-150,
-131,
-138,
-149,
-143,
-131,
-142,
-139,
-131,
-142,
-146,
-131,
-136,
-147,
-131,
-142,
-158,
-132,
-133,
-151,
-141,
-132,
-151,
-138,
-131,
-145,
-142,
-138,
-141,
-141,
-137,
-142,
-150,
-134,
-139,
-150,
-142,
-131,
-147,
-142,
-131,
-145,
-149,
-134,
-142,
-143,
-137,
-139,
-147,
-134,
-132,
-145,
-140,
-131,
-139,
-140,
-131,
-150,
-150,
-136,
-142,
-142,
-137,
-139,
-148,
-136,
-131,
-141,
-139,
-133,
-141,
-138,
-132,
-146,
-151,
-139,
-142,
-144,
-138,
-138,
-146,
-138,
-142,
-142,
-140,
-134,
-142,
-139,
-131,
-140,
-151,
-135,
-139,
-144,
-132,
-135,
-151,
-140,
-135,
-149,
-142,
-131,
-140,
-144,
-138,
-141,
-144,
-135,
-137,
-141,
-136,
-135,
-142,
-136,
-132,
-142,
-143,
-133,
-150,
-142,
-132,
-144,
-150,
-142,
-138,
-144,
-140,
-143,
-146,
-134,
-131,
-142,
-144,
-131,
-139,
-144,
-135,
-142,
-140,
-140,
-140,
-149,
-135,
-131,
-145,
-140,
-131,
-143,
-146,
-134,
-148,
-141,
-134,
-139,
-150,
-142,
-135,
-147,
-138,
-131,
-148,
-137,
-131,
-146,
-145,
-133,
-138,
-143,
-131,
-142,
-155,
-137,
-137,
-144,
-141,
-134,
-154,
-136,
-131,
-139,
-146,
-132,
-146,
-142,
-134,
-142,
-150,
-142,
-134,
-143,
-138,
-132,
-139,
-139,
-132,
-142,
-139,
-133,
-146,
-141,
-133,
-139,
-153,
-141,
-134,
-147,
-138,
-131,
-146,
-135,
-134,
-146,
-146,
-132,
-139,
-146,
-136,
-142,
-150,
-141,
-131,
-142,
-138,
-131,
-149,
-136,
-131,
-146,
-150,
-136,
-139,
-145,
-139,
-143,
-149,
-140,
-132,
-142,
-139,
-131,
-146,
-142,
-136,
-146,
-143,
-139,
-140,
-146,
-142,
-142,
-154,
-139,
-131,
-146,
-140,
-131,
-146,
-145,
-133,
-139,
-146,
-135,
-139,
-150,
-142,
-136,
-145,
-143,
-131,
-142,
-138,
-133,
-142,
-139,
-131,
-144,
-143,
-135,
-138,
-150,
-139,
-141,
-148,
-139,
-131,
-150,
-140,
-131,
-140,
-144,
-131,
-138,
-147,
-136,
-131,
-146,
-135,
-134,
-151,
-143,
-131,
-144,
-144,
-137,
-150,
-143,
-132,
-142,
-144,
-131,
-131,
-149,
-140,
-135,
-146,
-145,
-131,
-147,
-137,
-131,
-138,
-142,
-134,
-140,
-147,
-139,
-135,
-146,
-138,
-140,
-149,
-150,
-131,
-145,
-142,
-132,
-148,
-144,
-136,
-142,
-146,
-138,
-134,
-143,
-144,
-135,
-142,
-146,
-131,
-140,
-138,
-134,
-142,
-142,
-134,
-138,
-143,
-137,
-131,
-143,
-144,
-131,
-146,
-135,
-139,
-139,
-147,
-134,
-142,
-144,
-135,
-138,
-144,
-136,
-131,
-146,
-142,
-135,
-152,
-146,
-131,
-138,
-144,
-134,
-144,
-146,
-134,
-136,
-142,
-141,
-132,
-143,
-139,
-133,
-148,
-147,
-131,
-138,
-140,
-135,
-140,
-144,
-136,
-138,
-143,
-146,
-131,
-146,
-139,
-134,
-147,
-154,
-133,
-144,
-139,
-133,
-142,
-147,
-134,
-139,
-146,
-146,
-131,
-141,
-150,
-133,
-143,
-148,
-131,
-143,
-145,
-134,
-136,
-142,
-139,
-135,
-146,
-144,
-134,
-141,
-142,
-135,
-150,
-144,
-131,
-142,
-144,
-134,
-142,
-150,
-139,
-138,
-146,
-146,
-131,
-146,
-145,
-131,
-151,
-142,
-131,
-138,
-141,
-135,
-137,
-142,
-136,
-132,
-145,
-142,
-131,
-142,
-142,
-138,
-142,
-135,
-135,
-137,
-141,
-141,
-133,
-146,
-139,
-134,
-146,
-145,
-131,
-143,
-142,
-134,
-155,
-145,
-131,
-138,
-142,
-132,
-142,
-147,
-138,
-135,
-144,
-146,
-131,
-146,
-141,
-134,
-139,
-154,
-131,
-141,
-143,
-141,
-140,
-151,
-137,
-134,
-143,
-142,
-131,
-135,
-142,
-138,
-147,
-149,
-137,
-142,
-146,
-135,
-142,
-145,
-139,
-131,
-141,
-143,
-131,
-142,
-131,
-131,
-139,
-147,
-134,
-143,
-147,
-135,
-134,
-148,
-134,
-131,
-141,
-146,
-142,
-150,
-142,
-131,
-138,
-142,
-142,
-145,
-150,
-139,
-132,
-146,
-136,
-131,
-150,
-144,
-131,
-147,
-142,
-131,
-138,
-149,
-141,
-134,
-143,
-138,
-131,
-147,
-136,
-131,
-146,
-146,
-134,
-144,
-142,
-135,
-140,
-148,
-136,
-138,
-142,
-142,
-132,
-146,
-133,
-131,
-141,
-147,
-135,
-142,
-142,
-131,
-141,
-146,
-142,
-135,
-144,
-134,
-135,
-141,
-131,
-131,
-145,
-144,
-131,
-147,
-138,
-132,
-142,
-144,
-139,
-136,
-144,
-138,
-131,
-145,
-138,
-131,
-142,
-146,
-134,
-147,
-141,
-137,
-143,
-145,
-139,
-137,
-143,
-138,
-131,
-146,
-138,
-133,
-139,
-135,
-135,
-142,
-143,
-135,
-136,
-155,
-145,
-134,
-143,
-142,
-131,
-145,
-145,
-131,
-146,
-146,
-134,
-144,
-139,
-134,
-138,
-147,
-138,
-134,
-146,
-142,
-134,
-138,
-142,
-132,
-147,
-144,
-139,
-142,
-145,
-136,
-142,
-146,
-143,
-131,
-142,
-146,
-131,
-145,
-138,
-131,
-142,
-143,
-139,
-142,
-141,
-142,
-135,
-154,
-131,
-131,
-146,
-141,
-131,
-142,
-135,
-136,
-142,
-146,
-139,
-138,
-143,
-142,
-134,
-144,
-142,
-131,
-150,
-142,
-135,
-146,
-150,
-134,
-140,
-147,
-134,
-140,
-139,
-140,
-134,
-149,
-139,
-131,
-147,
-142,
-131,
-144,
-151,
-131,
-139,
-148,
-146,
-140,
-143,
-134,
-131,
-139,
-139,
-131,
-145,
-139,
-131,
-143,
-144,
-135,
-138,
-143,
-136,
-138,
-142,
-142,
-134,
-150,
-144,
-131,
-137,
-142,
-131,
-150,
-149,
-132,
-138,
-149,
-139,
-138,
-142,
-143,
-134,
-146,
-139,
-131,
-142,
-146,
-131,
-149,
-142,
-131,
-140,
-147,
-138,
-139,
-145,
-140,
-131,
-143,
-146,
-131,
-139,
-141,
-132,
-144,
-150,
-132,
-142,
-150,
-141,
-139,
-146,
-137,
-131,
-145,
-144,
-131,
-139,
-141,
-135,
-139,
-151,
-137,
-137,
-148,
-143,
-135,
-142,
-138,
-131,
-146,
-140,
-131,
-146,
-146,
-135,
-147,
-138,
-136,
-138,
-145,
-137,
-136,
-140,
-139,
-131,
-142,
-140,
-131,
-142,
-135,
-133,
-146,
-143,
-138,
-141,
-138,
-139,
-142,
-136,
-139,
-131,
-142,
-141,
-139,
-136,
-141,
-136,
-142,
-149,
-141,
-139,
-144,
-135,
-134,
-142,
-136,
-134,
-147,
-147,
-137,
-143,
-142,
-131,
-139,
-145,
-137,
-135,
-145,
-139,
-134,
-145,
-141,
-131,
-147,
-152,
-134,
-140,
-142,
-133,
-139,
-147,
-136,
-134,
-148,
-139,
-131,
-143,
-142,
-131,
-145,
-149,
-134,
-143,
-140,
-131,
-140,
-149,
-135,
-131,
-151,
-146,
-137,
-146,
-141,
-131,
-147,
-150,
-138,
-139,
-143,
-135,
-148,
-148,
-133,
-131,
-146,
-140,
-134,
-143,
-144,
-131,
-138,
-146,
-133,
-142,
-150,
-137,
-139,
-150,
-136,
-131,
-147,
-138,
-136,
-145,
-139,
-131,
-142,
-143,
-138,
-141,
-149,
-139,
-139,
-146,
-136,
-131,
-149,
-141,
-135,
-148,
-140,
-131,
-142,
-146,
-139,
-140,
-143,
-140,
-139,
-146,
-138,
-131,
-139,
-144,
-132,
-146,
-131,
-131,
-138,
-145,
-135,
-142,
-147,
-140,
-135,
-150,
-135,
-131,
-144,
-145,
-134,
-145,
-142,
-131,
-142,
-146,
-142,
-137,
-146,
-138,
-134,
-148,
-143,
-131,
-142,
-148,
-131,
-146,
-140,
-132,
-141,
-147,
-135,
-145,
-150,
-138,
-134,
-150,
-135,
-132,
-140,
-146,
-134,
-151,
-143,
-134,
-141,
-149,
-138,
-134,
-150,
-140,
-131,
-145,
-141,
-143,
-143,
-147,
-135,
-146,
